-debug
-target:library
-nowarn:0169
-langversion:7
-out:"F:/Unity Projecten/2018/ClimbingGame/Temp/Assembly-CSharp-firstpass.dll"
-nostdlib
-unsafe
-r:D:\Programmas\Unity2018.3\Editor\Data\Managed/UnityEngine/UnityEngine.dll
-r:D:\Programmas\Unity2018.3\Editor\Data\Managed/UnityEngine/UnityEngine.AIModule.dll
-r:D:\Programmas\Unity2018.3\Editor\Data\Managed/UnityEngine/UnityEngine.ARModule.dll
-r:D:\Programmas\Unity2018.3\Editor\Data\Managed/UnityEngine/UnityEngine.AccessibilityModule.dll
-r:D:\Programmas\Unity2018.3\Editor\Data\Managed/UnityEngine/UnityEngine.AnimationModule.dll
-r:D:\Programmas\Unity2018.3\Editor\Data\Managed/UnityEngine/UnityEngine.AssetBundleModule.dll
-r:D:\Programmas\Unity2018.3\Editor\Data\Managed/UnityEngine/UnityEngine.AudioModule.dll
-r:D:\Programmas\Unity2018.3\Editor\Data\Managed/UnityEngine/UnityEngine.BaselibModule.dll
-r:D:\Programmas\Unity2018.3\Editor\Data\Managed/UnityEngine/UnityEngine.ClothModule.dll
-r:D:\Programmas\Unity2018.3\Editor\Data\Managed/UnityEngine/UnityEngine.ClusterInputModule.dll
-r:D:\Programmas\Unity2018.3\Editor\Data\Managed/UnityEngine/UnityEngine.ClusterRendererModule.dll
-r:D:\Programmas\Unity2018.3\Editor\Data\Managed/UnityEngine/UnityEngine.CoreModule.dll
-r:D:\Programmas\Unity2018.3\Editor\Data\Managed/UnityEngine/UnityEngine.CrashReportingModule.dll
-r:D:\Programmas\Unity2018.3\Editor\Data\Managed/UnityEngine/UnityEngine.DirectorModule.dll
-r:D:\Programmas\Unity2018.3\Editor\Data\Managed/UnityEngine/UnityEngine.FileSystemHttpModule.dll
-r:D:\Programmas\Unity2018.3\Editor\Data\Managed/UnityEngine/UnityEngine.GameCenterModule.dll
-r:D:\Programmas\Unity2018.3\Editor\Data\Managed/UnityEngine/UnityEngine.GridModule.dll
-r:D:\Programmas\Unity2018.3\Editor\Data\Managed/UnityEngine/UnityEngine.HotReloadModule.dll
-r:D:\Programmas\Unity2018.3\Editor\Data\Managed/UnityEngine/UnityEngine.IMGUIModule.dll
-r:D:\Programmas\Unity2018.3\Editor\Data\Managed/UnityEngine/UnityEngine.ImageConversionModule.dll
-r:D:\Programmas\Unity2018.3\Editor\Data\Managed/UnityEngine/UnityEngine.InputModule.dll
-r:D:\Programmas\Unity2018.3\Editor\Data\Managed/UnityEngine/UnityEngine.JSONSerializeModule.dll
-r:D:\Programmas\Unity2018.3\Editor\Data\Managed/UnityEngine/UnityEngine.LocalizationModule.dll
-r:D:\Programmas\Unity2018.3\Editor\Data\Managed/UnityEngine/UnityEngine.ParticleSystemModule.dll
-r:D:\Programmas\Unity2018.3\Editor\Data\Managed/UnityEngine/UnityEngine.PerformanceReportingModule.dll
-r:D:\Programmas\Unity2018.3\Editor\Data\Managed/UnityEngine/UnityEngine.PhysicsModule.dll
-r:D:\Programmas\Unity2018.3\Editor\Data\Managed/UnityEngine/UnityEngine.Physics2DModule.dll
-r:D:\Programmas\Unity2018.3\Editor\Data\Managed/UnityEngine/UnityEngine.ProfilerModule.dll
-r:D:\Programmas\Unity2018.3\Editor\Data\Managed/UnityEngine/UnityEngine.ScreenCaptureModule.dll
-r:D:\Programmas\Unity2018.3\Editor\Data\Managed/UnityEngine/UnityEngine.SharedInternalsModule.dll
-r:D:\Programmas\Unity2018.3\Editor\Data\Managed/UnityEngine/UnityEngine.SpriteMaskModule.dll
-r:D:\Programmas\Unity2018.3\Editor\Data\Managed/UnityEngine/UnityEngine.SpriteShapeModule.dll
-r:D:\Programmas\Unity2018.3\Editor\Data\Managed/UnityEngine/UnityEngine.StreamingModule.dll
-r:D:\Programmas\Unity2018.3\Editor\Data\Managed/UnityEngine/UnityEngine.StyleSheetsModule.dll
-r:D:\Programmas\Unity2018.3\Editor\Data\Managed/UnityEngine/UnityEngine.SubstanceModule.dll
-r:D:\Programmas\Unity2018.3\Editor\Data\Managed/UnityEngine/UnityEngine.TLSModule.dll
-r:D:\Programmas\Unity2018.3\Editor\Data\Managed/UnityEngine/UnityEngine.TerrainModule.dll
-r:D:\Programmas\Unity2018.3\Editor\Data\Managed/UnityEngine/UnityEngine.TerrainPhysicsModule.dll
-r:D:\Programmas\Unity2018.3\Editor\Data\Managed/UnityEngine/UnityEngine.TextCoreModule.dll
-r:D:\Programmas\Unity2018.3\Editor\Data\Managed/UnityEngine/UnityEngine.TextRenderingModule.dll
-r:D:\Programmas\Unity2018.3\Editor\Data\Managed/UnityEngine/UnityEngine.TilemapModule.dll
-r:D:\Programmas\Unity2018.3\Editor\Data\Managed/UnityEngine/UnityEngine.TimelineModule.dll
-r:D:\Programmas\Unity2018.3\Editor\Data\Managed/UnityEngine/UnityEngine.UIModule.dll
-r:D:\Programmas\Unity2018.3\Editor\Data\Managed/UnityEngine/UnityEngine.UIElementsModule.dll
-r:D:\Programmas\Unity2018.3\Editor\Data\Managed/UnityEngine/UnityEngine.UNETModule.dll
-r:D:\Programmas\Unity2018.3\Editor\Data\Managed/UnityEngine/UnityEngine.UmbraModule.dll
-r:D:\Programmas\Unity2018.3\Editor\Data\Managed/UnityEngine/UnityEngine.UnityAnalyticsModule.dll
-r:D:\Programmas\Unity2018.3\Editor\Data\Managed/UnityEngine/UnityEngine.UnityConnectModule.dll
-r:D:\Programmas\Unity2018.3\Editor\Data\Managed/UnityEngine/UnityEngine.UnityTestProtocolModule.dll
-r:D:\Programmas\Unity2018.3\Editor\Data\Managed/UnityEngine/UnityEngine.UnityWebRequestModule.dll
-r:D:\Programmas\Unity2018.3\Editor\Data\Managed/UnityEngine/UnityEngine.UnityWebRequestAssetBundleModule.dll
-r:D:\Programmas\Unity2018.3\Editor\Data\Managed/UnityEngine/UnityEngine.UnityWebRequestAudioModule.dll
-r:D:\Programmas\Unity2018.3\Editor\Data\Managed/UnityEngine/UnityEngine.UnityWebRequestTextureModule.dll
-r:D:\Programmas\Unity2018.3\Editor\Data\Managed/UnityEngine/UnityEngine.UnityWebRequestWWWModule.dll
-r:D:\Programmas\Unity2018.3\Editor\Data\Managed/UnityEngine/UnityEngine.VFXModule.dll
-r:D:\Programmas\Unity2018.3\Editor\Data\Managed/UnityEngine/UnityEngine.VRModule.dll
-r:D:\Programmas\Unity2018.3\Editor\Data\Managed/UnityEngine/UnityEngine.VehiclesModule.dll
-r:D:\Programmas\Unity2018.3\Editor\Data\Managed/UnityEngine/UnityEngine.VideoModule.dll
-r:D:\Programmas\Unity2018.3\Editor\Data\Managed/UnityEngine/UnityEngine.WindModule.dll
-r:D:\Programmas\Unity2018.3\Editor\Data\Managed/UnityEngine/UnityEngine.XRModule.dll
-r:D:\Programmas\Unity2018.3\Editor\Data\Managed/UnityEditor.dll
-r:D:\Programmas\Unity2018.3\Editor\Data\Managed/Unity.Locator.dll
-r:"F:/Unity Projecten/2018/ClimbingGame/Library/ScriptAssemblies/Cinemachine.dll"
-r:"F:/Unity Projecten/2018/ClimbingGame/Library/ScriptAssemblies/Unity.ProBuilder.AddOns.Editor.dll"
-r:"F:/Unity Projecten/2018/ClimbingGame/Library/ScriptAssemblies/Unity.RenderPipelines.Core.Editor.dll"
-r:"F:/Unity Projecten/2018/ClimbingGame/Library/ScriptAssemblies/Unity.RenderPipelines.Core.Runtime.dll"
-r:"F:/Unity Projecten/2018/ClimbingGame/Library/ScriptAssemblies/Unity.TextMeshPro.Editor.dll"
-r:"F:/Unity Projecten/2018/ClimbingGame/Library/ScriptAssemblies/Unity.RenderPipelines.Lightweight.Runtime.dll"
-r:"F:/Unity Projecten/2018/ClimbingGame/Library/ScriptAssemblies/Unity.RenderPipelines.Lightweight.Editor.dll"
-r:"F:/Unity Projecten/2018/ClimbingGame/Library/ScriptAssemblies/Unity.PackageManagerUI.Editor.dll"
-r:"F:/Unity Projecten/2018/ClimbingGame/Library/ScriptAssemblies/Unity.CollabProxy.Editor.dll"
-r:"F:/Unity Projecten/2018/ClimbingGame/Library/ScriptAssemblies/Unity.RenderPipelines.HighDefinition.Runtime.dll"
-r:"F:/Unity Projecten/2018/ClimbingGame/Library/ScriptAssemblies/Unity.Postprocessing.Editor.dll"
-r:"F:/Unity Projecten/2018/ClimbingGame/Library/ScriptAssemblies/Unity.Postprocessing.Runtime.dll"
-r:"F:/Unity Projecten/2018/ClimbingGame/Library/ScriptAssemblies/com.unity.cinemachine.editor.dll"
-r:"F:/Unity Projecten/2018/ClimbingGame/Library/ScriptAssemblies/Unity.ShaderGraph.Editor.dll"
-r:"F:/Unity Projecten/2018/ClimbingGame/Library/ScriptAssemblies/Unity.RenderPipelines.HighDefinition.Editor.dll"
-r:"F:/Unity Projecten/2018/ClimbingGame/Library/ScriptAssemblies/Unity.RenderPipelines.Core.ShaderLibrary.dll"
-r:"F:/Unity Projecten/2018/ClimbingGame/Library/ScriptAssemblies/Unity.TextMeshPro.dll"
-r:"F:/Unity Projecten/2018/ClimbingGame/Library/ScriptAssemblies/Unity.Analytics.DataPrivacy.dll"
-r:D:/Programmas/Unity2018.3/Editor/Data/UnityExtensions/Unity/GUISystem/UnityEngine.UI.dll
-r:D:/Programmas/Unity2018.3/Editor/Data/UnityExtensions/Unity/Timeline/RuntimeEditor/UnityEngine.Timeline.dll
-r:D:/Programmas/Unity2018.3/Editor/Data/UnityExtensions/Unity/Networking/UnityEngine.Networking.dll
-r:D:/Programmas/Unity2018.3/Editor/Data/PlaybackEngines/VuforiaSupport/Managed/Runtime/Vuforia.UnityExtensions.dll
-r:D:/Programmas/Unity2018.3/Editor/Data/UnityExtensions/Unity/UnityGoogleAudioSpatializer/RuntimeEditor/UnityEngine.GoogleAudioSpatializer.dll
-r:D:/Programmas/Unity2018.3/Editor/Data/UnityExtensions/Unity/UnitySpatialTracking/RuntimeEditor/UnityEngine.SpatialTracking.dll
-r:"F:/Unity Projecten/2018/ClimbingGame/Assets/Addons/Demigiant/DemiLib/Core/DemiLib.dll"
-r:"F:/Unity Projecten/2018/ClimbingGame/Assets/Addons/Demigiant/DOTween/DOTween.dll"
-r:"F:/Unity Projecten/2018/ClimbingGame/Assets/Addons/Demigiant/DOTween/DOTween43.dll"
-r:"F:/Unity Projecten/2018/ClimbingGame/Assets/Addons/Demigiant/DOTween/DOTween46.dll"
-r:"F:/Unity Projecten/2018/ClimbingGame/Assets/Addons/Demigiant/DOTween/DOTween50.dll"
-r:"F:/Unity Projecten/2018/ClimbingGame/Assets/Addons/Demigiant/DOTweenPro/DOTweenPro.dll"
-r:"F:/Unity Projecten/2018/ClimbingGame/Assets/Addons/JsonDotNet/Assemblies/Standalone/Newtonsoft.Json.dll"
-r:"F:/Unity Projecten/2018/ClimbingGame/Assets/Plugins/Mono.Data.SqliteClient.dll"
-r:"F:/Unity Projecten/2018/ClimbingGame/Assets/Scripts/RoyFrameWork/Serialize/ProtoBuf/protobuf-net.dll"
-r:"F:/Unity Projecten/2018/ClimbingGame/Library/PackageCache/com.unity.analytics@3.2.2/Unity.Analytics.Editor.dll"
-r:"F:/Unity Projecten/2018/ClimbingGame/Library/PackageCache/com.unity.analytics@3.2.2/Unity.Analytics.StandardEvents.dll"
-r:"F:/Unity Projecten/2018/ClimbingGame/Library/PackageCache/com.unity.analytics@3.2.2/Unity.Analytics.Tracker.dll"
-r:"F:/Unity Projecten/2018/ClimbingGame/Library/PackageCache/com.unity.probuilder@3.0.9/ProBuilder/Classes/ProBuilderCore.dll"
-r:"F:/Unity Projecten/2018/ClimbingGame/Library/PackageCache/com.unity.probuilder@3.0.9/ProBuilder/Classes/ProBuilderMeshOps.dll"
-r:"F:/Unity Projecten/2018/ClimbingGame/Library/PackageCache/com.unity.probuilder@3.0.9/ProBuilder/Classes/ClassesLib/KdTreeLib.dll"
-r:"F:/Unity Projecten/2018/ClimbingGame/Library/PackageCache/com.unity.probuilder@3.0.9/ProBuilder/Classes/ClassesLib/pb_Stl.dll"
-r:"F:/Unity Projecten/2018/ClimbingGame/Library/PackageCache/com.unity.probuilder@3.0.9/ProBuilder/Classes/ClassesLib/Poly2Tri.dll"
-r:D:/Programmas/Unity2018.3/Editor/Data/PlaybackEngines/iOSSupport\UnityEditor.iOS.Extensions.Xcode.dll
-r:D:/Programmas/Unity2018.3/Editor/Data/PlaybackEngines/iOSSupport\UnityEditor.iOS.Extensions.Common.dll
-r:D:\Programmas\Unity2018.3\Editor\Data\MonoBleedingEdge\lib\mono\4.7.1-api\mscorlib.dll
-r:D:\Programmas\Unity2018.3\Editor\Data\MonoBleedingEdge\lib\mono\4.7.1-api\System.dll
-r:D:\Programmas\Unity2018.3\Editor\Data\MonoBleedingEdge\lib\mono\4.7.1-api\System.Core.dll
-r:D:\Programmas\Unity2018.3\Editor\Data\MonoBleedingEdge\lib\mono\4.7.1-api\System.Runtime.Serialization.dll
-r:D:\Programmas\Unity2018.3\Editor\Data\MonoBleedingEdge\lib\mono\4.7.1-api\System.Xml.dll
-r:D:\Programmas\Unity2018.3\Editor\Data\MonoBleedingEdge\lib\mono\4.7.1-api\System.Xml.Linq.dll
-r:D:\Programmas\Unity2018.3\Editor\Data\MonoBleedingEdge\lib\mono\4.7.1-api\System.Numerics.dll
-r:D:\Programmas\Unity2018.3\Editor\Data\MonoBleedingEdge\lib\mono\4.7.1-api\System.Numerics.Vectors.dll
-r:D:\Programmas\Unity2018.3\Editor\Data\MonoBleedingEdge\lib\mono\4.7.1-api\System.Net.Http.dll
-r:D:\Programmas\Unity2018.3\Editor\Data\MonoBleedingEdge\lib\mono\4.7.1-api\Microsoft.CSharp.dll
-r:D:\Programmas\Unity2018.3\Editor\Data\MonoBleedingEdge\lib\mono\4.7.1-api\System.Data.dll
-r:D:\Programmas\Unity2018.3\Editor\Data\MonoBleedingEdge\lib\mono\4.7.1-api\Facades\Microsoft.Win32.Primitives.dll
-r:D:\Programmas\Unity2018.3\Editor\Data\MonoBleedingEdge\lib\mono\4.7.1-api\Facades\netstandard.dll
-r:D:\Programmas\Unity2018.3\Editor\Data\MonoBleedingEdge\lib\mono\4.7.1-api\Facades\System.AppContext.dll
-r:D:\Programmas\Unity2018.3\Editor\Data\MonoBleedingEdge\lib\mono\4.7.1-api\Facades\System.Collections.Concurrent.dll
-r:D:\Programmas\Unity2018.3\Editor\Data\MonoBleedingEdge\lib\mono\4.7.1-api\Facades\System.Collections.dll
-r:D:\Programmas\Unity2018.3\Editor\Data\MonoBleedingEdge\lib\mono\4.7.1-api\Facades\System.Collections.NonGeneric.dll
-r:D:\Programmas\Unity2018.3\Editor\Data\MonoBleedingEdge\lib\mono\4.7.1-api\Facades\System.Collections.Specialized.dll
-r:D:\Programmas\Unity2018.3\Editor\Data\MonoBleedingEdge\lib\mono\4.7.1-api\Facades\System.ComponentModel.Annotations.dll
-r:D:\Programmas\Unity2018.3\Editor\Data\MonoBleedingEdge\lib\mono\4.7.1-api\Facades\System.ComponentModel.dll
-r:D:\Programmas\Unity2018.3\Editor\Data\MonoBleedingEdge\lib\mono\4.7.1-api\Facades\System.ComponentModel.EventBasedAsync.dll
-r:D:\Programmas\Unity2018.3\Editor\Data\MonoBleedingEdge\lib\mono\4.7.1-api\Facades\System.ComponentModel.Primitives.dll
-r:D:\Programmas\Unity2018.3\Editor\Data\MonoBleedingEdge\lib\mono\4.7.1-api\Facades\System.ComponentModel.TypeConverter.dll
-r:D:\Programmas\Unity2018.3\Editor\Data\MonoBleedingEdge\lib\mono\4.7.1-api\Facades\System.Console.dll
-r:D:\Programmas\Unity2018.3\Editor\Data\MonoBleedingEdge\lib\mono\4.7.1-api\Facades\System.Data.Common.dll
-r:D:\Programmas\Unity2018.3\Editor\Data\MonoBleedingEdge\lib\mono\4.7.1-api\Facades\System.Diagnostics.Contracts.dll
-r:D:\Programmas\Unity2018.3\Editor\Data\MonoBleedingEdge\lib\mono\4.7.1-api\Facades\System.Diagnostics.Debug.dll
-r:D:\Programmas\Unity2018.3\Editor\Data\MonoBleedingEdge\lib\mono\4.7.1-api\Facades\System.Diagnostics.FileVersionInfo.dll
-r:D:\Programmas\Unity2018.3\Editor\Data\MonoBleedingEdge\lib\mono\4.7.1-api\Facades\System.Diagnostics.Process.dll
-r:D:\Programmas\Unity2018.3\Editor\Data\MonoBleedingEdge\lib\mono\4.7.1-api\Facades\System.Diagnostics.StackTrace.dll
-r:D:\Programmas\Unity2018.3\Editor\Data\MonoBleedingEdge\lib\mono\4.7.1-api\Facades\System.Diagnostics.TextWriterTraceListener.dll
-r:D:\Programmas\Unity2018.3\Editor\Data\MonoBleedingEdge\lib\mono\4.7.1-api\Facades\System.Diagnostics.Tools.dll
-r:D:\Programmas\Unity2018.3\Editor\Data\MonoBleedingEdge\lib\mono\4.7.1-api\Facades\System.Diagnostics.TraceSource.dll
-r:D:\Programmas\Unity2018.3\Editor\Data\MonoBleedingEdge\lib\mono\4.7.1-api\Facades\System.Drawing.Primitives.dll
-r:D:\Programmas\Unity2018.3\Editor\Data\MonoBleedingEdge\lib\mono\4.7.1-api\Facades\System.Dynamic.Runtime.dll
-r:D:\Programmas\Unity2018.3\Editor\Data\MonoBleedingEdge\lib\mono\4.7.1-api\Facades\System.Globalization.Calendars.dll
-r:D:\Programmas\Unity2018.3\Editor\Data\MonoBleedingEdge\lib\mono\4.7.1-api\Facades\System.Globalization.dll
-r:D:\Programmas\Unity2018.3\Editor\Data\MonoBleedingEdge\lib\mono\4.7.1-api\Facades\System.Globalization.Extensions.dll
-r:D:\Programmas\Unity2018.3\Editor\Data\MonoBleedingEdge\lib\mono\4.7.1-api\Facades\System.IO.Compression.ZipFile.dll
-r:D:\Programmas\Unity2018.3\Editor\Data\MonoBleedingEdge\lib\mono\4.7.1-api\Facades\System.IO.dll
-r:D:\Programmas\Unity2018.3\Editor\Data\MonoBleedingEdge\lib\mono\4.7.1-api\Facades\System.IO.FileSystem.dll
-r:D:\Programmas\Unity2018.3\Editor\Data\MonoBleedingEdge\lib\mono\4.7.1-api\Facades\System.IO.FileSystem.DriveInfo.dll
-r:D:\Programmas\Unity2018.3\Editor\Data\MonoBleedingEdge\lib\mono\4.7.1-api\Facades\System.IO.FileSystem.Primitives.dll
-r:D:\Programmas\Unity2018.3\Editor\Data\MonoBleedingEdge\lib\mono\4.7.1-api\Facades\System.IO.FileSystem.Watcher.dll
-r:D:\Programmas\Unity2018.3\Editor\Data\MonoBleedingEdge\lib\mono\4.7.1-api\Facades\System.IO.IsolatedStorage.dll
-r:D:\Programmas\Unity2018.3\Editor\Data\MonoBleedingEdge\lib\mono\4.7.1-api\Facades\System.IO.MemoryMappedFiles.dll
-r:D:\Programmas\Unity2018.3\Editor\Data\MonoBleedingEdge\lib\mono\4.7.1-api\Facades\System.IO.Pipes.dll
-r:D:\Programmas\Unity2018.3\Editor\Data\MonoBleedingEdge\lib\mono\4.7.1-api\Facades\System.IO.UnmanagedMemoryStream.dll
-r:D:\Programmas\Unity2018.3\Editor\Data\MonoBleedingEdge\lib\mono\4.7.1-api\Facades\System.Linq.dll
-r:D:\Programmas\Unity2018.3\Editor\Data\MonoBleedingEdge\lib\mono\4.7.1-api\Facades\System.Linq.Expressions.dll
-r:D:\Programmas\Unity2018.3\Editor\Data\MonoBleedingEdge\lib\mono\4.7.1-api\Facades\System.Linq.Parallel.dll
-r:D:\Programmas\Unity2018.3\Editor\Data\MonoBleedingEdge\lib\mono\4.7.1-api\Facades\System.Linq.Queryable.dll
-r:D:\Programmas\Unity2018.3\Editor\Data\MonoBleedingEdge\lib\mono\4.7.1-api\Facades\System.Net.Http.Rtc.dll
-r:D:\Programmas\Unity2018.3\Editor\Data\MonoBleedingEdge\lib\mono\4.7.1-api\Facades\System.Net.NameResolution.dll
-r:D:\Programmas\Unity2018.3\Editor\Data\MonoBleedingEdge\lib\mono\4.7.1-api\Facades\System.Net.NetworkInformation.dll
-r:D:\Programmas\Unity2018.3\Editor\Data\MonoBleedingEdge\lib\mono\4.7.1-api\Facades\System.Net.Ping.dll
-r:D:\Programmas\Unity2018.3\Editor\Data\MonoBleedingEdge\lib\mono\4.7.1-api\Facades\System.Net.Primitives.dll
-r:D:\Programmas\Unity2018.3\Editor\Data\MonoBleedingEdge\lib\mono\4.7.1-api\Facades\System.Net.Requests.dll
-r:D:\Programmas\Unity2018.3\Editor\Data\MonoBleedingEdge\lib\mono\4.7.1-api\Facades\System.Net.Security.dll
-r:D:\Programmas\Unity2018.3\Editor\Data\MonoBleedingEdge\lib\mono\4.7.1-api\Facades\System.Net.Sockets.dll
-r:D:\Programmas\Unity2018.3\Editor\Data\MonoBleedingEdge\lib\mono\4.7.1-api\Facades\System.Net.WebHeaderCollection.dll
-r:D:\Programmas\Unity2018.3\Editor\Data\MonoBleedingEdge\lib\mono\4.7.1-api\Facades\System.Net.WebSockets.Client.dll
-r:D:\Programmas\Unity2018.3\Editor\Data\MonoBleedingEdge\lib\mono\4.7.1-api\Facades\System.Net.WebSockets.dll
-r:D:\Programmas\Unity2018.3\Editor\Data\MonoBleedingEdge\lib\mono\4.7.1-api\Facades\System.ObjectModel.dll
-r:D:\Programmas\Unity2018.3\Editor\Data\MonoBleedingEdge\lib\mono\4.7.1-api\Facades\System.Reflection.dll
-r:D:\Programmas\Unity2018.3\Editor\Data\MonoBleedingEdge\lib\mono\4.7.1-api\Facades\System.Reflection.Emit.dll
-r:D:\Programmas\Unity2018.3\Editor\Data\MonoBleedingEdge\lib\mono\4.7.1-api\Facades\System.Reflection.Emit.ILGeneration.dll
-r:D:\Programmas\Unity2018.3\Editor\Data\MonoBleedingEdge\lib\mono\4.7.1-api\Facades\System.Reflection.Emit.Lightweight.dll
-r:D:\Programmas\Unity2018.3\Editor\Data\MonoBleedingEdge\lib\mono\4.7.1-api\Facades\System.Reflection.Extensions.dll
-r:D:\Programmas\Unity2018.3\Editor\Data\MonoBleedingEdge\lib\mono\4.7.1-api\Facades\System.Reflection.Primitives.dll
-r:D:\Programmas\Unity2018.3\Editor\Data\MonoBleedingEdge\lib\mono\4.7.1-api\Facades\System.Resources.Reader.dll
-r:D:\Programmas\Unity2018.3\Editor\Data\MonoBleedingEdge\lib\mono\4.7.1-api\Facades\System.Resources.ResourceManager.dll
-r:D:\Programmas\Unity2018.3\Editor\Data\MonoBleedingEdge\lib\mono\4.7.1-api\Facades\System.Resources.Writer.dll
-r:D:\Programmas\Unity2018.3\Editor\Data\MonoBleedingEdge\lib\mono\4.7.1-api\Facades\System.Runtime.CompilerServices.VisualC.dll
-r:D:\Programmas\Unity2018.3\Editor\Data\MonoBleedingEdge\lib\mono\4.7.1-api\Facades\System.Runtime.dll
-r:D:\Programmas\Unity2018.3\Editor\Data\MonoBleedingEdge\lib\mono\4.7.1-api\Facades\System.Runtime.Extensions.dll
-r:D:\Programmas\Unity2018.3\Editor\Data\MonoBleedingEdge\lib\mono\4.7.1-api\Facades\System.Runtime.Handles.dll
-r:D:\Programmas\Unity2018.3\Editor\Data\MonoBleedingEdge\lib\mono\4.7.1-api\Facades\System.Runtime.InteropServices.dll
-r:D:\Programmas\Unity2018.3\Editor\Data\MonoBleedingEdge\lib\mono\4.7.1-api\Facades\System.Runtime.InteropServices.RuntimeInformation.dll
-r:D:\Programmas\Unity2018.3\Editor\Data\MonoBleedingEdge\lib\mono\4.7.1-api\Facades\System.Runtime.InteropServices.WindowsRuntime.dll
-r:D:\Programmas\Unity2018.3\Editor\Data\MonoBleedingEdge\lib\mono\4.7.1-api\Facades\System.Runtime.Numerics.dll
-r:D:\Programmas\Unity2018.3\Editor\Data\MonoBleedingEdge\lib\mono\4.7.1-api\Facades\System.Runtime.Serialization.Formatters.dll
-r:D:\Programmas\Unity2018.3\Editor\Data\MonoBleedingEdge\lib\mono\4.7.1-api\Facades\System.Runtime.Serialization.Json.dll
-r:D:\Programmas\Unity2018.3\Editor\Data\MonoBleedingEdge\lib\mono\4.7.1-api\Facades\System.Runtime.Serialization.Primitives.dll
-r:D:\Programmas\Unity2018.3\Editor\Data\MonoBleedingEdge\lib\mono\4.7.1-api\Facades\System.Runtime.Serialization.Xml.dll
-r:D:\Programmas\Unity2018.3\Editor\Data\MonoBleedingEdge\lib\mono\4.7.1-api\Facades\System.Security.Claims.dll
-r:D:\Programmas\Unity2018.3\Editor\Data\MonoBleedingEdge\lib\mono\4.7.1-api\Facades\System.Security.Cryptography.Algorithms.dll
-r:D:\Programmas\Unity2018.3\Editor\Data\MonoBleedingEdge\lib\mono\4.7.1-api\Facades\System.Security.Cryptography.Csp.dll
-r:D:\Programmas\Unity2018.3\Editor\Data\MonoBleedingEdge\lib\mono\4.7.1-api\Facades\System.Security.Cryptography.Encoding.dll
-r:D:\Programmas\Unity2018.3\Editor\Data\MonoBleedingEdge\lib\mono\4.7.1-api\Facades\System.Security.Cryptography.Primitives.dll
-r:D:\Programmas\Unity2018.3\Editor\Data\MonoBleedingEdge\lib\mono\4.7.1-api\Facades\System.Security.Cryptography.X509Certificates.dll
-r:D:\Programmas\Unity2018.3\Editor\Data\MonoBleedingEdge\lib\mono\4.7.1-api\Facades\System.Security.Principal.dll
-r:D:\Programmas\Unity2018.3\Editor\Data\MonoBleedingEdge\lib\mono\4.7.1-api\Facades\System.Security.SecureString.dll
-r:D:\Programmas\Unity2018.3\Editor\Data\MonoBleedingEdge\lib\mono\4.7.1-api\Facades\System.ServiceModel.Duplex.dll
-r:D:\Programmas\Unity2018.3\Editor\Data\MonoBleedingEdge\lib\mono\4.7.1-api\Facades\System.ServiceModel.Http.dll
-r:D:\Programmas\Unity2018.3\Editor\Data\MonoBleedingEdge\lib\mono\4.7.1-api\Facades\System.ServiceModel.NetTcp.dll
-r:D:\Programmas\Unity2018.3\Editor\Data\MonoBleedingEdge\lib\mono\4.7.1-api\Facades\System.ServiceModel.Primitives.dll
-r:D:\Programmas\Unity2018.3\Editor\Data\MonoBleedingEdge\lib\mono\4.7.1-api\Facades\System.ServiceModel.Security.dll
-r:D:\Programmas\Unity2018.3\Editor\Data\MonoBleedingEdge\lib\mono\4.7.1-api\Facades\System.Text.Encoding.dll
-r:D:\Programmas\Unity2018.3\Editor\Data\MonoBleedingEdge\lib\mono\4.7.1-api\Facades\System.Text.Encoding.Extensions.dll
-r:D:\Programmas\Unity2018.3\Editor\Data\MonoBleedingEdge\lib\mono\4.7.1-api\Facades\System.Text.RegularExpressions.dll
-r:D:\Programmas\Unity2018.3\Editor\Data\MonoBleedingEdge\lib\mono\4.7.1-api\Facades\System.Threading.dll
-r:D:\Programmas\Unity2018.3\Editor\Data\MonoBleedingEdge\lib\mono\4.7.1-api\Facades\System.Threading.Overlapped.dll
-r:D:\Programmas\Unity2018.3\Editor\Data\MonoBleedingEdge\lib\mono\4.7.1-api\Facades\System.Threading.Tasks.dll
-r:D:\Programmas\Unity2018.3\Editor\Data\MonoBleedingEdge\lib\mono\4.7.1-api\Facades\System.Threading.Tasks.Parallel.dll
-r:D:\Programmas\Unity2018.3\Editor\Data\MonoBleedingEdge\lib\mono\4.7.1-api\Facades\System.Threading.Thread.dll
-r:D:\Programmas\Unity2018.3\Editor\Data\MonoBleedingEdge\lib\mono\4.7.1-api\Facades\System.Threading.ThreadPool.dll
-r:D:\Programmas\Unity2018.3\Editor\Data\MonoBleedingEdge\lib\mono\4.7.1-api\Facades\System.Threading.Timer.dll
-r:D:\Programmas\Unity2018.3\Editor\Data\MonoBleedingEdge\lib\mono\4.7.1-api\Facades\System.ValueTuple.dll
-r:D:\Programmas\Unity2018.3\Editor\Data\MonoBleedingEdge\lib\mono\4.7.1-api\Facades\System.Xml.ReaderWriter.dll
-r:D:\Programmas\Unity2018.3\Editor\Data\MonoBleedingEdge\lib\mono\4.7.1-api\Facades\System.Xml.XDocument.dll
-r:D:\Programmas\Unity2018.3\Editor\Data\MonoBleedingEdge\lib\mono\4.7.1-api\Facades\System.Xml.XmlDocument.dll
-r:D:\Programmas\Unity2018.3\Editor\Data\MonoBleedingEdge\lib\mono\4.7.1-api\Facades\System.Xml.XmlSerializer.dll
-r:D:\Programmas\Unity2018.3\Editor\Data\MonoBleedingEdge\lib\mono\4.7.1-api\Facades\System.Xml.XPath.dll
-r:D:\Programmas\Unity2018.3\Editor\Data\MonoBleedingEdge\lib\mono\4.7.1-api\Facades\System.Xml.XPath.XDocument.dll
-r:D:\Programmas\Unity2018.3\Editor\Data\MonoBleedingEdge\lib\mono\unityscript\UnityScript.dll
-r:D:\Programmas\Unity2018.3\Editor\Data\MonoBleedingEdge\lib\mono\unityscript\UnityScript.Lang.dll
-r:D:\Programmas\Unity2018.3\Editor\Data\MonoBleedingEdge\lib\mono\unityscript\Boo.Lang.dll
-d:UNITY_5_3_OR_NEWER
-d:UNITY_5_4_OR_NEWER
-d:UNITY_5_5_OR_NEWER
-d:UNITY_5_6_OR_NEWER
-d:UNITY_2017_1_OR_NEWER
-d:UNITY_2017_2_OR_NEWER
-d:UNITY_2017_3_OR_NEWER
-d:UNITY_2017_4_OR_NEWER
-d:UNITY_2018_1_OR_NEWER
-d:UNITY_2018_2_OR_NEWER
-d:UNITY_2018_3_OR_NEWER
-d:UNITY_2018_3_10
-d:UNITY_2018_3
-d:UNITY_2018
-d:PLATFORM_ARCH_64
-d:UNITY_64
-d:UNITY_INCLUDE_TESTS
-d:ENABLE_AUDIO
-d:ENABLE_CACHING
-d:ENABLE_CLOTH
-d:ENABLE_DUCK_TYPING
-d:ENABLE_MICROPHONE
-d:ENABLE_MULTIPLE_DISPLAYS
-d:ENABLE_PHYSICS
-d:ENABLE_SPRITES
-d:ENABLE_GRID
-d:ENABLE_TILEMAP
-d:ENABLE_TERRAIN
-d:ENABLE_TEXTURE_STREAMING
-d:ENABLE_DIRECTOR
-d:ENABLE_UNET
-d:ENABLE_LZMA
-d:ENABLE_UNITYEVENTS
-d:ENABLE_WEBCAM
-d:ENABLE_WWW
-d:ENABLE_CLOUD_SERVICES_COLLAB
-d:ENABLE_CLOUD_SERVICES_COLLAB_SOFTLOCKS
-d:ENABLE_CLOUD_SERVICES_ADS
-d:ENABLE_CLOUD_HUB
-d:ENABLE_CLOUD_PROJECT_ID
-d:ENABLE_CLOUD_SERVICES_USE_WEBREQUEST
-d:ENABLE_CLOUD_SERVICES_UNET
-d:ENABLE_CLOUD_SERVICES_BUILD
-d:ENABLE_CLOUD_LICENSE
-d:ENABLE_EDITOR_HUB
-d:ENABLE_EDITOR_HUB_LICENSE
-d:ENABLE_WEBSOCKET_CLIENT
-d:ENABLE_DIRECTOR_AUDIO
-d:ENABLE_DIRECTOR_TEXTURE
-d:ENABLE_TIMELINE
-d:ENABLE_EDITOR_METRICS
-d:ENABLE_EDITOR_METRICS_CACHING
-d:ENABLE_MANAGED_JOBS
-d:ENABLE_MANAGED_TRANSFORM_JOBS
-d:ENABLE_MANAGED_ANIMATION_JOBS
-d:INCLUDE_DYNAMIC_GI
-d:INCLUDE_GI
-d:ENABLE_MONO_BDWGC
-d:PLATFORM_SUPPORTS_MONO
-d:RENDER_SOFTWARE_CURSOR
-d:INCLUDE_PUBNUB
-d:ENABLE_VIDEO
-d:ENABLE_CUSTOM_RENDER_TEXTURE
-d:ENABLE_LOCALIZATION
-d:PLATFORM_STANDALONE_WIN
-d:PLATFORM_STANDALONE
-d:UNITY_STANDALONE_WIN
-d:UNITY_STANDALONE
-d:ENABLE_SUBSTANCE
-d:ENABLE_RUNTIME_GI
-d:ENABLE_MOVIES
-d:ENABLE_NETWORK
-d:ENABLE_CRUNCH_TEXTURE_COMPRESSION
-d:ENABLE_UNITYWEBREQUEST
-d:ENABLE_CLOUD_SERVICES
-d:ENABLE_CLOUD_SERVICES_ANALYTICS
-d:ENABLE_CLOUD_SERVICES_PURCHASING
-d:ENABLE_CLOUD_SERVICES_CRASH_REPORTING
-d:ENABLE_OUT_OF_PROCESS_CRASH_HANDLER
-d:ENABLE_EVENT_QUEUE
-d:ENABLE_CLUSTER_SYNC
-d:ENABLE_CLUSTERINPUT
-d:ENABLE_VR
-d:ENABLE_AR
-d:ENABLE_WEBSOCKET_HOST
-d:ENABLE_MONO
-d:NET_4_6
-d:ENABLE_PROFILER
-d:DEBUG
-d:TRACE
-d:UNITY_ASSERTIONS
-d:UNITY_EDITOR
-d:UNITY_EDITOR_64
-d:UNITY_EDITOR_WIN
-d:ENABLE_UNITY_COLLECTIONS_CHECKS
-d:ENABLE_BURST_AOT
-d:UNITY_TEAM_LICENSE
-d:ENABLE_VSTU
-d:UNITY_PRO_LICENSE
-d:UNITY_POST_PROCESSING_STACK_V2
-d:CSHARP_7_OR_LATER
-d:CSHARP_7_3_OR_NEWER
-i:"F:/Unity Projecten/2018/ClimbingGame/Assets/Plugins/RootMotion/FinalIK/_DEMOS/Aim IK/Scripts/AimBoxing.cs"
-i:"F:/Unity Projecten/2018/ClimbingGame/Assets/Plugins/RootMotion/FinalIK/_DEMOS/Aim IK/Scripts/AimSwing.cs"
-i:"F:/Unity Projecten/2018/ClimbingGame/Assets/Plugins/RootMotion/FinalIK/_DEMOS/Aim IK/Scripts/SimpleAimingSystem.cs"
-i:"F:/Unity Projecten/2018/ClimbingGame/Assets/Plugins/RootMotion/FinalIK/_DEMOS/Aim IK/Scripts/TerrainOffset.cs"
-i:"F:/Unity Projecten/2018/ClimbingGame/Assets/Plugins/RootMotion/FinalIK/_DEMOS/Biped IK/Scripts/BipedIKvsAnimatorIK.cs"
-i:"F:/Unity Projecten/2018/ClimbingGame/Assets/Plugins/RootMotion/FinalIK/_DEMOS/CCD IK/Scripts/MechSpider.cs"
-i:"F:/Unity Projecten/2018/ClimbingGame/Assets/Plugins/RootMotion/FinalIK/_DEMOS/CCD IK/Scripts/MechSpiderController.cs"
-i:"F:/Unity Projecten/2018/ClimbingGame/Assets/Plugins/RootMotion/FinalIK/_DEMOS/CCD IK/Scripts/MechSpiderLeg.cs"
-i:"F:/Unity Projecten/2018/ClimbingGame/Assets/Plugins/RootMotion/FinalIK/_DEMOS/CCD IK/Scripts/MechSpiderParticles.cs"
-i:"F:/Unity Projecten/2018/ClimbingGame/Assets/Plugins/RootMotion/FinalIK/_DEMOS/FBBIK/Scripts/AnimationWarping.cs"
-i:"F:/Unity Projecten/2018/ClimbingGame/Assets/Plugins/RootMotion/FinalIK/_DEMOS/FBBIK/Scripts/AnimatorController3rdPerson.cs"
-i:"F:/Unity Projecten/2018/ClimbingGame/Assets/Plugins/RootMotion/FinalIK/_DEMOS/FBBIK/Scripts/AnimatorController3rdPersonIK.cs"
-i:"F:/Unity Projecten/2018/ClimbingGame/Assets/Plugins/RootMotion/FinalIK/_DEMOS/FBBIK/Scripts/CharacterAnimationThirdPersonIK.cs"
-i:"F:/Unity Projecten/2018/ClimbingGame/Assets/Plugins/RootMotion/FinalIK/_DEMOS/FBBIK/Scripts/CharacterController3rdPerson.cs"
-i:"F:/Unity Projecten/2018/ClimbingGame/Assets/Plugins/RootMotion/FinalIK/_DEMOS/FBBIK/Scripts/EffectorOffset.cs"
-i:"F:/Unity Projecten/2018/ClimbingGame/Assets/Plugins/RootMotion/FinalIK/_DEMOS/FBBIK/Scripts/ExplosionDemo.cs"
-i:"F:/Unity Projecten/2018/ClimbingGame/Assets/Plugins/RootMotion/FinalIK/_DEMOS/FBBIK/Scripts/FBBIKSettings.cs"
-i:"F:/Unity Projecten/2018/ClimbingGame/Assets/Plugins/RootMotion/FinalIK/_DEMOS/FBBIK/Scripts/FBIKBendGoal.cs"
-i:"F:/Unity Projecten/2018/ClimbingGame/Assets/Plugins/RootMotion/FinalIK/_DEMOS/FBBIK/Scripts/FBIKBoxing.cs"
-i:"F:/Unity Projecten/2018/ClimbingGame/Assets/Plugins/RootMotion/FinalIK/_DEMOS/FBBIK/Scripts/FBIKHandsOnProp.cs"
-i:"F:/Unity Projecten/2018/ClimbingGame/Assets/Plugins/RootMotion/FinalIK/_DEMOS/FBBIK/Scripts/FPSAiming.cs"
-i:"F:/Unity Projecten/2018/ClimbingGame/Assets/Plugins/RootMotion/FinalIK/_DEMOS/FBBIK/Scripts/FPSCharacter.cs"
-i:"F:/Unity Projecten/2018/ClimbingGame/Assets/Plugins/RootMotion/FinalIK/_DEMOS/FBBIK/Scripts/HitReactionTrigger.cs"
-i:"F:/Unity Projecten/2018/ClimbingGame/Assets/Plugins/RootMotion/FinalIK/_DEMOS/FBBIK/Scripts/HoldingHands.cs"
-i:"F:/Unity Projecten/2018/ClimbingGame/Assets/Plugins/RootMotion/FinalIK/_DEMOS/FBBIK/Scripts/InteractionC2CDemo.cs"
-i:"F:/Unity Projecten/2018/ClimbingGame/Assets/Plugins/RootMotion/FinalIK/_DEMOS/FBBIK/Scripts/InteractionDemo.cs"
-i:"F:/Unity Projecten/2018/ClimbingGame/Assets/Plugins/RootMotion/FinalIK/_DEMOS/FBBIK/Scripts/InteractionSystemTestGUI.cs"
-i:"F:/Unity Projecten/2018/ClimbingGame/Assets/Plugins/RootMotion/FinalIK/_DEMOS/FBBIK/Scripts/KissingRig.cs"
-i:"F:/Unity Projecten/2018/ClimbingGame/Assets/Plugins/RootMotion/FinalIK/_DEMOS/FBBIK/Scripts/MotionAbsorb.cs"
-i:"F:/Unity Projecten/2018/ClimbingGame/Assets/Plugins/RootMotion/FinalIK/_DEMOS/FBBIK/Scripts/MotionAbsorbCharacter.cs"
-i:"F:/Unity Projecten/2018/ClimbingGame/Assets/Plugins/RootMotion/FinalIK/_DEMOS/FBBIK/Scripts/OffsetEffector.cs"
-i:"F:/Unity Projecten/2018/ClimbingGame/Assets/Plugins/RootMotion/FinalIK/_DEMOS/FBBIK/Scripts/PendulumExample.cs"
-i:"F:/Unity Projecten/2018/ClimbingGame/Assets/Plugins/RootMotion/FinalIK/_DEMOS/FBBIK/Scripts/PickUp2Handed.cs"
-i:"F:/Unity Projecten/2018/ClimbingGame/Assets/Plugins/RootMotion/FinalIK/_DEMOS/FBBIK/Scripts/PickUpBox.cs"
-i:"F:/Unity Projecten/2018/ClimbingGame/Assets/Plugins/RootMotion/FinalIK/_DEMOS/FBBIK/Scripts/PickUpSphere.cs"
-i:"F:/Unity Projecten/2018/ClimbingGame/Assets/Plugins/RootMotion/FinalIK/_DEMOS/FBBIK/Scripts/RagdollUtilityDemo.cs"
-i:"F:/Unity Projecten/2018/ClimbingGame/Assets/Plugins/RootMotion/FinalIK/_DEMOS/FBBIK/Scripts/RecoilTest.cs"
-i:"F:/Unity Projecten/2018/ClimbingGame/Assets/Plugins/RootMotion/FinalIK/_DEMOS/FBBIK/Scripts/ResetInteractionObject.cs"
-i:"F:/Unity Projecten/2018/ClimbingGame/Assets/Plugins/RootMotion/FinalIK/_DEMOS/FBBIK/Scripts/SoccerDemo.cs"
-i:"F:/Unity Projecten/2018/ClimbingGame/Assets/Plugins/RootMotion/FinalIK/_DEMOS/FBBIK/Scripts/TouchWalls.cs"
-i:"F:/Unity Projecten/2018/ClimbingGame/Assets/Plugins/RootMotion/FinalIK/_DEMOS/FBBIK/Scripts/TransferMotion.cs"
-i:"F:/Unity Projecten/2018/ClimbingGame/Assets/Plugins/RootMotion/FinalIK/_DEMOS/FBBIK/Scripts/TwoHandedProp.cs"
-i:"F:/Unity Projecten/2018/ClimbingGame/Assets/Plugins/RootMotion/FinalIK/_DEMOS/FBBIK/Scripts/UserControlInteractions.cs"
-i:"F:/Unity Projecten/2018/ClimbingGame/Assets/Plugins/RootMotion/FinalIK/_DEMOS/Grounder/Scripts/GrounderDemo.cs"
-i:"F:/Unity Projecten/2018/ClimbingGame/Assets/Plugins/RootMotion/FinalIK/_DEMOS/Grounder/Scripts/PlatformRotator.cs"
-i:"F:/Unity Projecten/2018/ClimbingGame/Assets/Plugins/RootMotion/FinalIK/_DEMOS/Limb IK/Scripts/BendGoal.cs"
-i:"F:/Unity Projecten/2018/ClimbingGame/Assets/Plugins/RootMotion/FinalIK/_DEMOS/Rotation Limits/Scripts/Turret.cs"
-i:"F:/Unity Projecten/2018/ClimbingGame/Assets/Plugins/RootMotion/FinalIK/_DEMOS/VRIK/Scripts/HitReactionVRIKTrigger.cs"
-i:"F:/Unity Projecten/2018/ClimbingGame/Assets/Plugins/RootMotion/FinalIK/_DEMOS/VRIK/Scripts/VRIKCalibrationController.cs"
-i:"F:/Unity Projecten/2018/ClimbingGame/Assets/Plugins/RootMotion/FinalIK/_DEMOS/VRIK/Scripts/VRIKPlatform.cs"
-i:"F:/Unity Projecten/2018/ClimbingGame/Assets/Plugins/RootMotion/FinalIK/_DEMOS/VRIK/Scripts/VRIKRootController.cs"
-i:"F:/Unity Projecten/2018/ClimbingGame/Assets/Plugins/RootMotion/FinalIK/BipedIK/BipedIK.cs"
-i:"F:/Unity Projecten/2018/ClimbingGame/Assets/Plugins/RootMotion/FinalIK/BipedIK/BipedIKSolvers.cs"
-i:"F:/Unity Projecten/2018/ClimbingGame/Assets/Plugins/RootMotion/FinalIK/Constraints/Constraint.cs"
-i:"F:/Unity Projecten/2018/ClimbingGame/Assets/Plugins/RootMotion/FinalIK/Constraints/ConstraintPosition.cs"
-i:"F:/Unity Projecten/2018/ClimbingGame/Assets/Plugins/RootMotion/FinalIK/Constraints/ConstraintPositionOffset.cs"
-i:"F:/Unity Projecten/2018/ClimbingGame/Assets/Plugins/RootMotion/FinalIK/Constraints/ConstraintRotation.cs"
-i:"F:/Unity Projecten/2018/ClimbingGame/Assets/Plugins/RootMotion/FinalIK/Constraints/ConstraintRotationOffset.cs"
-i:"F:/Unity Projecten/2018/ClimbingGame/Assets/Plugins/RootMotion/FinalIK/Constraints/Constraints.cs"
-i:"F:/Unity Projecten/2018/ClimbingGame/Assets/Plugins/RootMotion/FinalIK/DoxygenManualFinalIK.cs"
-i:"F:/Unity Projecten/2018/ClimbingGame/Assets/Plugins/RootMotion/FinalIK/Finger Rig/FingerRig.cs"
-i:"F:/Unity Projecten/2018/ClimbingGame/Assets/Plugins/RootMotion/FinalIK/Grounder/Grounder.cs"
-i:"F:/Unity Projecten/2018/ClimbingGame/Assets/Plugins/RootMotion/FinalIK/Grounder/GrounderBipedIK.cs"
-i:"F:/Unity Projecten/2018/ClimbingGame/Assets/Plugins/RootMotion/FinalIK/Grounder/GrounderFBBIK.cs"
-i:"F:/Unity Projecten/2018/ClimbingGame/Assets/Plugins/RootMotion/FinalIK/Grounder/GrounderIK.cs"
-i:"F:/Unity Projecten/2018/ClimbingGame/Assets/Plugins/RootMotion/FinalIK/Grounder/GrounderQuadruped.cs"
-i:"F:/Unity Projecten/2018/ClimbingGame/Assets/Plugins/RootMotion/FinalIK/Grounder/GrounderVRIK.cs"
-i:"F:/Unity Projecten/2018/ClimbingGame/Assets/Plugins/RootMotion/FinalIK/Grounder/Grounding.cs"
-i:"F:/Unity Projecten/2018/ClimbingGame/Assets/Plugins/RootMotion/FinalIK/Grounder/GroundingLeg.cs"
-i:"F:/Unity Projecten/2018/ClimbingGame/Assets/Plugins/RootMotion/FinalIK/Grounder/GroundingPelvis.cs"
-i:"F:/Unity Projecten/2018/ClimbingGame/Assets/Plugins/RootMotion/FinalIK/IK Components/AimIK.cs"
-i:"F:/Unity Projecten/2018/ClimbingGame/Assets/Plugins/RootMotion/FinalIK/IK Components/CCDIK.cs"
-i:"F:/Unity Projecten/2018/ClimbingGame/Assets/Plugins/RootMotion/FinalIK/IK Components/FABRIK.cs"
-i:"F:/Unity Projecten/2018/ClimbingGame/Assets/Plugins/RootMotion/FinalIK/IK Components/FABRIKRoot.cs"
-i:"F:/Unity Projecten/2018/ClimbingGame/Assets/Plugins/RootMotion/FinalIK/IK Components/FullBodyBipedIK.cs"
-i:"F:/Unity Projecten/2018/ClimbingGame/Assets/Plugins/RootMotion/FinalIK/IK Components/IK.cs"
-i:"F:/Unity Projecten/2018/ClimbingGame/Assets/Plugins/RootMotion/FinalIK/IK Components/IKExecutionOrder.cs"
-i:"F:/Unity Projecten/2018/ClimbingGame/Assets/Plugins/RootMotion/FinalIK/IK Components/LegIK.cs"
-i:"F:/Unity Projecten/2018/ClimbingGame/Assets/Plugins/RootMotion/FinalIK/IK Components/LimbIK.cs"
-i:"F:/Unity Projecten/2018/ClimbingGame/Assets/Plugins/RootMotion/FinalIK/IK Components/LookAtIK.cs"
-i:"F:/Unity Projecten/2018/ClimbingGame/Assets/Plugins/RootMotion/FinalIK/IK Components/TrigonometricIK.cs"
-i:"F:/Unity Projecten/2018/ClimbingGame/Assets/Plugins/RootMotion/FinalIK/IK Components/VRIK.cs"
-i:"F:/Unity Projecten/2018/ClimbingGame/Assets/Plugins/RootMotion/FinalIK/IK Solvers/FABRIKChain.cs"
-i:"F:/Unity Projecten/2018/ClimbingGame/Assets/Plugins/RootMotion/FinalIK/IK Solvers/FBBIKArmBending.cs"
-i:"F:/Unity Projecten/2018/ClimbingGame/Assets/Plugins/RootMotion/FinalIK/IK Solvers/FBBIKHeadEffector.cs"
-i:"F:/Unity Projecten/2018/ClimbingGame/Assets/Plugins/RootMotion/FinalIK/IK Solvers/FBIKChain.cs"
-i:"F:/Unity Projecten/2018/ClimbingGame/Assets/Plugins/RootMotion/FinalIK/IK Solvers/IKConstraintBend.cs"
-i:"F:/Unity Projecten/2018/ClimbingGame/Assets/Plugins/RootMotion/FinalIK/IK Solvers/IKEffector.cs"
-i:"F:/Unity Projecten/2018/ClimbingGame/Assets/Plugins/RootMotion/FinalIK/IK Solvers/IKMapping.cs"
-i:"F:/Unity Projecten/2018/ClimbingGame/Assets/Plugins/RootMotion/FinalIK/IK Solvers/IKMappingBone.cs"
-i:"F:/Unity Projecten/2018/ClimbingGame/Assets/Plugins/RootMotion/FinalIK/IK Solvers/IKMappingLimb.cs"
-i:"F:/Unity Projecten/2018/ClimbingGame/Assets/Plugins/RootMotion/FinalIK/IK Solvers/IKMappingSpine.cs"
-i:"F:/Unity Projecten/2018/ClimbingGame/Assets/Plugins/RootMotion/FinalIK/IK Solvers/IKSolver.cs"
-i:"F:/Unity Projecten/2018/ClimbingGame/Assets/Plugins/RootMotion/FinalIK/IK Solvers/IKSolverAim.cs"
-i:"F:/Unity Projecten/2018/ClimbingGame/Assets/Plugins/RootMotion/FinalIK/IK Solvers/IKSolverCCD.cs"
-i:"F:/Unity Projecten/2018/ClimbingGame/Assets/Plugins/RootMotion/FinalIK/IK Solvers/IKSolverFABRIK.cs"
-i:"F:/Unity Projecten/2018/ClimbingGame/Assets/Plugins/RootMotion/FinalIK/IK Solvers/IKSolverFABRIKRoot.cs"
-i:"F:/Unity Projecten/2018/ClimbingGame/Assets/Plugins/RootMotion/FinalIK/IK Solvers/IKSolverFullBody.cs"
-i:"F:/Unity Projecten/2018/ClimbingGame/Assets/Plugins/RootMotion/FinalIK/IK Solvers/IKSolverFullBodyBiped.cs"
-i:"F:/Unity Projecten/2018/ClimbingGame/Assets/Plugins/RootMotion/FinalIK/IK Solvers/IKSolverHeuristic.cs"
-i:"F:/Unity Projecten/2018/ClimbingGame/Assets/Plugins/RootMotion/FinalIK/IK Solvers/IKSolverLeg.cs"
-i:"F:/Unity Projecten/2018/ClimbingGame/Assets/Plugins/RootMotion/FinalIK/IK Solvers/IKSolverLimb.cs"
-i:"F:/Unity Projecten/2018/ClimbingGame/Assets/Plugins/RootMotion/FinalIK/IK Solvers/IKSolverLookAt.cs"
-i:"F:/Unity Projecten/2018/ClimbingGame/Assets/Plugins/RootMotion/FinalIK/IK Solvers/IKSolverTrigonometric.cs"
-i:"F:/Unity Projecten/2018/ClimbingGame/Assets/Plugins/RootMotion/FinalIK/IK Solvers/IKSolverVR.cs"
-i:"F:/Unity Projecten/2018/ClimbingGame/Assets/Plugins/RootMotion/FinalIK/IK Solvers/IKSolverVRArm.cs"
-i:"F:/Unity Projecten/2018/ClimbingGame/Assets/Plugins/RootMotion/FinalIK/IK Solvers/IKSolverVRBodyPart.cs"
-i:"F:/Unity Projecten/2018/ClimbingGame/Assets/Plugins/RootMotion/FinalIK/IK Solvers/IKSolverVRFootstep.cs"
-i:"F:/Unity Projecten/2018/ClimbingGame/Assets/Plugins/RootMotion/FinalIK/IK Solvers/IKSolverVRLeg.cs"
-i:"F:/Unity Projecten/2018/ClimbingGame/Assets/Plugins/RootMotion/FinalIK/IK Solvers/IKSolverVRLocomotion.cs"
-i:"F:/Unity Projecten/2018/ClimbingGame/Assets/Plugins/RootMotion/FinalIK/IK Solvers/IKSolverVRSpine.cs"
-i:"F:/Unity Projecten/2018/ClimbingGame/Assets/Plugins/RootMotion/FinalIK/IK Solvers/IKSolverVRUtilities.cs"
-i:"F:/Unity Projecten/2018/ClimbingGame/Assets/Plugins/RootMotion/FinalIK/IK Solvers/TwistRelaxer.cs"
-i:"F:/Unity Projecten/2018/ClimbingGame/Assets/Plugins/RootMotion/FinalIK/InteractionSystem/InteractionEffector.cs"
-i:"F:/Unity Projecten/2018/ClimbingGame/Assets/Plugins/RootMotion/FinalIK/InteractionSystem/InteractionLookAt.cs"
-i:"F:/Unity Projecten/2018/ClimbingGame/Assets/Plugins/RootMotion/FinalIK/InteractionSystem/InteractionObject.cs"
-i:"F:/Unity Projecten/2018/ClimbingGame/Assets/Plugins/RootMotion/FinalIK/InteractionSystem/InteractionSystem.cs"
-i:"F:/Unity Projecten/2018/ClimbingGame/Assets/Plugins/RootMotion/FinalIK/InteractionSystem/InteractionTarget.cs"
-i:"F:/Unity Projecten/2018/ClimbingGame/Assets/Plugins/RootMotion/FinalIK/InteractionSystem/InteractionTrigger.cs"
-i:"F:/Unity Projecten/2018/ClimbingGame/Assets/Plugins/RootMotion/FinalIK/Posers/GenericPoser.cs"
-i:"F:/Unity Projecten/2018/ClimbingGame/Assets/Plugins/RootMotion/FinalIK/Posers/HandPoser.cs"
-i:"F:/Unity Projecten/2018/ClimbingGame/Assets/Plugins/RootMotion/FinalIK/Posers/Poser.cs"
-i:"F:/Unity Projecten/2018/ClimbingGame/Assets/Plugins/RootMotion/FinalIK/Ragdoll Utility/RagdollUtility.cs"
-i:"F:/Unity Projecten/2018/ClimbingGame/Assets/Plugins/RootMotion/FinalIK/Rotation Limits/RotationLimit.cs"
-i:"F:/Unity Projecten/2018/ClimbingGame/Assets/Plugins/RootMotion/FinalIK/Rotation Limits/RotationLimitAngle.cs"
-i:"F:/Unity Projecten/2018/ClimbingGame/Assets/Plugins/RootMotion/FinalIK/Rotation Limits/RotationLimitHinge.cs"
-i:"F:/Unity Projecten/2018/ClimbingGame/Assets/Plugins/RootMotion/FinalIK/Rotation Limits/RotationLimitPolygonal.cs"
-i:"F:/Unity Projecten/2018/ClimbingGame/Assets/Plugins/RootMotion/FinalIK/Rotation Limits/RotationLimitSpline.cs"
-i:"F:/Unity Projecten/2018/ClimbingGame/Assets/Plugins/RootMotion/FinalIK/Tools/AimController.cs"
-i:"F:/Unity Projecten/2018/ClimbingGame/Assets/Plugins/RootMotion/FinalIK/Tools/AimPoser.cs"
-i:"F:/Unity Projecten/2018/ClimbingGame/Assets/Plugins/RootMotion/FinalIK/Tools/Amplifier.cs"
-i:"F:/Unity Projecten/2018/ClimbingGame/Assets/Plugins/RootMotion/FinalIK/Tools/BodyTilt.cs"
-i:"F:/Unity Projecten/2018/ClimbingGame/Assets/Plugins/RootMotion/FinalIK/Tools/HitReaction.cs"
-i:"F:/Unity Projecten/2018/ClimbingGame/Assets/Plugins/RootMotion/FinalIK/Tools/HitReactionVRIK.cs"
-i:"F:/Unity Projecten/2018/ClimbingGame/Assets/Plugins/RootMotion/FinalIK/Tools/Inertia.cs"
-i:"F:/Unity Projecten/2018/ClimbingGame/Assets/Plugins/RootMotion/FinalIK/Tools/OffsetModifier.cs"
-i:"F:/Unity Projecten/2018/ClimbingGame/Assets/Plugins/RootMotion/FinalIK/Tools/OffsetModifierVRIK.cs"
-i:"F:/Unity Projecten/2018/ClimbingGame/Assets/Plugins/RootMotion/FinalIK/Tools/OffsetPose.cs"
-i:"F:/Unity Projecten/2018/ClimbingGame/Assets/Plugins/RootMotion/FinalIK/Tools/Recoil.cs"
-i:"F:/Unity Projecten/2018/ClimbingGame/Assets/Plugins/RootMotion/FinalIK/Tools/ShoulderRotator.cs"
-i:"F:/Unity Projecten/2018/ClimbingGame/Assets/Plugins/RootMotion/FinalIK/Tools/VRIKCalibrator.cs"
-i:"F:/Unity Projecten/2018/ClimbingGame/Assets/Plugins/RootMotion/Shared Demo Assets/Scripts/Camera Controllers/CameraController.cs"
-i:"F:/Unity Projecten/2018/ClimbingGame/Assets/Plugins/RootMotion/Shared Demo Assets/Scripts/Camera Controllers/CameraControllerFPS.cs"
-i:"F:/Unity Projecten/2018/ClimbingGame/Assets/Plugins/RootMotion/Shared Demo Assets/Scripts/Character Controllers/CharacterAnimationBase.cs"
-i:"F:/Unity Projecten/2018/ClimbingGame/Assets/Plugins/RootMotion/Shared Demo Assets/Scripts/Character Controllers/CharacterAnimationSimple.cs"
-i:"F:/Unity Projecten/2018/ClimbingGame/Assets/Plugins/RootMotion/Shared Demo Assets/Scripts/Character Controllers/CharacterAnimationThirdPerson.cs"
-i:"F:/Unity Projecten/2018/ClimbingGame/Assets/Plugins/RootMotion/Shared Demo Assets/Scripts/Character Controllers/CharacterBase.cs"
-i:"F:/Unity Projecten/2018/ClimbingGame/Assets/Plugins/RootMotion/Shared Demo Assets/Scripts/Character Controllers/CharacterThirdPerson.cs"
-i:"F:/Unity Projecten/2018/ClimbingGame/Assets/Plugins/RootMotion/Shared Demo Assets/Scripts/Character Controllers/SimpleLocomotion.cs"
-i:"F:/Unity Projecten/2018/ClimbingGame/Assets/Plugins/RootMotion/Shared Demo Assets/Scripts/Character Controllers/UserControlAI.cs"
-i:"F:/Unity Projecten/2018/ClimbingGame/Assets/Plugins/RootMotion/Shared Demo Assets/Scripts/Character Controllers/UserControlThirdPerson.cs"
-i:"F:/Unity Projecten/2018/ClimbingGame/Assets/Plugins/RootMotion/Shared Demo Assets/Scripts/Misc/ApplicationQuit.cs"
-i:"F:/Unity Projecten/2018/ClimbingGame/Assets/Plugins/RootMotion/Shared Demo Assets/Scripts/Misc/SlowMo.cs"
-i:"F:/Unity Projecten/2018/ClimbingGame/Assets/Plugins/RootMotion/Shared Scripts/AxisTools.cs"
-i:"F:/Unity Projecten/2018/ClimbingGame/Assets/Plugins/RootMotion/Shared Scripts/BipedLimbOrientations.cs"
-i:"F:/Unity Projecten/2018/ClimbingGame/Assets/Plugins/RootMotion/Shared Scripts/BipedNaming.cs"
-i:"F:/Unity Projecten/2018/ClimbingGame/Assets/Plugins/RootMotion/Shared Scripts/BipedReferences.cs"
-i:"F:/Unity Projecten/2018/ClimbingGame/Assets/Plugins/RootMotion/Shared Scripts/Comments.cs"
-i:"F:/Unity Projecten/2018/ClimbingGame/Assets/Plugins/RootMotion/Shared Scripts/DemoGUIMessage.cs"
-i:"F:/Unity Projecten/2018/ClimbingGame/Assets/Plugins/RootMotion/Shared Scripts/Hierarchy.cs"
-i:"F:/Unity Projecten/2018/ClimbingGame/Assets/Plugins/RootMotion/Shared Scripts/Interp.cs"
-i:"F:/Unity Projecten/2018/ClimbingGame/Assets/Plugins/RootMotion/Shared Scripts/LargeHeader.cs"
-i:"F:/Unity Projecten/2018/ClimbingGame/Assets/Plugins/RootMotion/Shared Scripts/LayerMaskExtensions.cs"
-i:"F:/Unity Projecten/2018/ClimbingGame/Assets/Plugins/RootMotion/Shared Scripts/QuaTools.cs"
-i:"F:/Unity Projecten/2018/ClimbingGame/Assets/Plugins/RootMotion/Shared Scripts/Singleton.cs"
-i:"F:/Unity Projecten/2018/ClimbingGame/Assets/Plugins/RootMotion/Shared Scripts/SolverManager.cs"
-i:"F:/Unity Projecten/2018/ClimbingGame/Assets/Plugins/RootMotion/Shared Scripts/TriggerEventBroadcaster.cs"
-i:"F:/Unity Projecten/2018/ClimbingGame/Assets/Plugins/RootMotion/Shared Scripts/V3Tools.cs"
-i:"F:/Unity Projecten/2018/ClimbingGame/Assets/Plugins/RootMotion/Shared Scripts/Warning.cs"
-v:0
