-debug
-target:library
-nowarn:0169
-langversion:7
-out:"F:/Unity Projecten/2018/ClimbingGame/Temp/Unity.RenderPipelines.HighDefinition.Editor.dll"
-nostdlib
-unsafe
-r:"F:/Unity Projecten/2018/ClimbingGame/Library/ScriptAssemblies/Unity.RenderPipelines.HighDefinition.Runtime.dll"
-r:"F:/Unity Projecten/2018/ClimbingGame/Library/ScriptAssemblies/Unity.Postprocessing.Runtime.dll"
-r:"F:/Unity Projecten/2018/ClimbingGame/Library/ScriptAssemblies/Unity.ShaderGraph.Editor.dll"
-r:"F:/Unity Projecten/2018/ClimbingGame/Library/ScriptAssemblies/Unity.Postprocessing.Editor.dll"
-r:"F:/Unity Projecten/2018/ClimbingGame/Library/ScriptAssemblies/Unity.RenderPipelines.Core.Runtime.dll"
-r:"F:/Unity Projecten/2018/ClimbingGame/Library/ScriptAssemblies/Unity.RenderPipelines.Core.Editor.dll"
-r:D:\Programmas\Unity2018.3\Editor\Data\Managed/UnityEngine/UnityEngine.dll
-r:D:\Programmas\Unity2018.3\Editor\Data\Managed/UnityEngine/UnityEngine.AIModule.dll
-r:D:\Programmas\Unity2018.3\Editor\Data\Managed/UnityEngine/UnityEngine.ARModule.dll
-r:D:\Programmas\Unity2018.3\Editor\Data\Managed/UnityEngine/UnityEngine.AccessibilityModule.dll
-r:D:\Programmas\Unity2018.3\Editor\Data\Managed/UnityEngine/UnityEngine.AnimationModule.dll
-r:D:\Programmas\Unity2018.3\Editor\Data\Managed/UnityEngine/UnityEngine.AssetBundleModule.dll
-r:D:\Programmas\Unity2018.3\Editor\Data\Managed/UnityEngine/UnityEngine.AudioModule.dll
-r:D:\Programmas\Unity2018.3\Editor\Data\Managed/UnityEngine/UnityEngine.BaselibModule.dll
-r:D:\Programmas\Unity2018.3\Editor\Data\Managed/UnityEngine/UnityEngine.ClothModule.dll
-r:D:\Programmas\Unity2018.3\Editor\Data\Managed/UnityEngine/UnityEngine.ClusterInputModule.dll
-r:D:\Programmas\Unity2018.3\Editor\Data\Managed/UnityEngine/UnityEngine.ClusterRendererModule.dll
-r:D:\Programmas\Unity2018.3\Editor\Data\Managed/UnityEngine/UnityEngine.CoreModule.dll
-r:D:\Programmas\Unity2018.3\Editor\Data\Managed/UnityEngine/UnityEngine.CrashReportingModule.dll
-r:D:\Programmas\Unity2018.3\Editor\Data\Managed/UnityEngine/UnityEngine.DirectorModule.dll
-r:D:\Programmas\Unity2018.3\Editor\Data\Managed/UnityEngine/UnityEngine.FileSystemHttpModule.dll
-r:D:\Programmas\Unity2018.3\Editor\Data\Managed/UnityEngine/UnityEngine.GameCenterModule.dll
-r:D:\Programmas\Unity2018.3\Editor\Data\Managed/UnityEngine/UnityEngine.GridModule.dll
-r:D:\Programmas\Unity2018.3\Editor\Data\Managed/UnityEngine/UnityEngine.HotReloadModule.dll
-r:D:\Programmas\Unity2018.3\Editor\Data\Managed/UnityEngine/UnityEngine.IMGUIModule.dll
-r:D:\Programmas\Unity2018.3\Editor\Data\Managed/UnityEngine/UnityEngine.ImageConversionModule.dll
-r:D:\Programmas\Unity2018.3\Editor\Data\Managed/UnityEngine/UnityEngine.InputModule.dll
-r:D:\Programmas\Unity2018.3\Editor\Data\Managed/UnityEngine/UnityEngine.JSONSerializeModule.dll
-r:D:\Programmas\Unity2018.3\Editor\Data\Managed/UnityEngine/UnityEngine.LocalizationModule.dll
-r:D:\Programmas\Unity2018.3\Editor\Data\Managed/UnityEngine/UnityEngine.ParticleSystemModule.dll
-r:D:\Programmas\Unity2018.3\Editor\Data\Managed/UnityEngine/UnityEngine.PerformanceReportingModule.dll
-r:D:\Programmas\Unity2018.3\Editor\Data\Managed/UnityEngine/UnityEngine.PhysicsModule.dll
-r:D:\Programmas\Unity2018.3\Editor\Data\Managed/UnityEngine/UnityEngine.Physics2DModule.dll
-r:D:\Programmas\Unity2018.3\Editor\Data\Managed/UnityEngine/UnityEngine.ProfilerModule.dll
-r:D:\Programmas\Unity2018.3\Editor\Data\Managed/UnityEngine/UnityEngine.ScreenCaptureModule.dll
-r:D:\Programmas\Unity2018.3\Editor\Data\Managed/UnityEngine/UnityEngine.SharedInternalsModule.dll
-r:D:\Programmas\Unity2018.3\Editor\Data\Managed/UnityEngine/UnityEngine.SpatialTrackingModule.dll
-r:D:\Programmas\Unity2018.3\Editor\Data\Managed/UnityEngine/UnityEngine.SpriteMaskModule.dll
-r:D:\Programmas\Unity2018.3\Editor\Data\Managed/UnityEngine/UnityEngine.SpriteShapeModule.dll
-r:D:\Programmas\Unity2018.3\Editor\Data\Managed/UnityEngine/UnityEngine.StreamingModule.dll
-r:D:\Programmas\Unity2018.3\Editor\Data\Managed/UnityEngine/UnityEngine.StyleSheetsModule.dll
-r:D:\Programmas\Unity2018.3\Editor\Data\Managed/UnityEngine/UnityEngine.SubstanceModule.dll
-r:D:\Programmas\Unity2018.3\Editor\Data\Managed/UnityEngine/UnityEngine.TLSModule.dll
-r:D:\Programmas\Unity2018.3\Editor\Data\Managed/UnityEngine/UnityEngine.TerrainModule.dll
-r:D:\Programmas\Unity2018.3\Editor\Data\Managed/UnityEngine/UnityEngine.TerrainPhysicsModule.dll
-r:D:\Programmas\Unity2018.3\Editor\Data\Managed/UnityEngine/UnityEngine.TextCoreModule.dll
-r:D:\Programmas\Unity2018.3\Editor\Data\Managed/UnityEngine/UnityEngine.TextRenderingModule.dll
-r:D:\Programmas\Unity2018.3\Editor\Data\Managed/UnityEngine/UnityEngine.TilemapModule.dll
-r:D:\Programmas\Unity2018.3\Editor\Data\Managed/UnityEngine/UnityEngine.TimelineModule.dll
-r:D:\Programmas\Unity2018.3\Editor\Data\Managed/UnityEngine/UnityEngine.UIModule.dll
-r:D:\Programmas\Unity2018.3\Editor\Data\Managed/UnityEngine/UnityEngine.UIElementsModule.dll
-r:D:\Programmas\Unity2018.3\Editor\Data\Managed/UnityEngine/UnityEngine.UNETModule.dll
-r:D:\Programmas\Unity2018.3\Editor\Data\Managed/UnityEngine/UnityEngine.UmbraModule.dll
-r:D:\Programmas\Unity2018.3\Editor\Data\Managed/UnityEngine/UnityEngine.UnityAnalyticsModule.dll
-r:D:\Programmas\Unity2018.3\Editor\Data\Managed/UnityEngine/UnityEngine.UnityConnectModule.dll
-r:D:\Programmas\Unity2018.3\Editor\Data\Managed/UnityEngine/UnityEngine.UnityTestProtocolModule.dll
-r:D:\Programmas\Unity2018.3\Editor\Data\Managed/UnityEngine/UnityEngine.UnityWebRequestModule.dll
-r:D:\Programmas\Unity2018.3\Editor\Data\Managed/UnityEngine/UnityEngine.UnityWebRequestAssetBundleModule.dll
-r:D:\Programmas\Unity2018.3\Editor\Data\Managed/UnityEngine/UnityEngine.UnityWebRequestAudioModule.dll
-r:D:\Programmas\Unity2018.3\Editor\Data\Managed/UnityEngine/UnityEngine.UnityWebRequestTextureModule.dll
-r:D:\Programmas\Unity2018.3\Editor\Data\Managed/UnityEngine/UnityEngine.UnityWebRequestWWWModule.dll
-r:D:\Programmas\Unity2018.3\Editor\Data\Managed/UnityEngine/UnityEngine.VFXModule.dll
-r:D:\Programmas\Unity2018.3\Editor\Data\Managed/UnityEngine/UnityEngine.VRModule.dll
-r:D:\Programmas\Unity2018.3\Editor\Data\Managed/UnityEngine/UnityEngine.VehiclesModule.dll
-r:D:\Programmas\Unity2018.3\Editor\Data\Managed/UnityEngine/UnityEngine.VideoModule.dll
-r:D:\Programmas\Unity2018.3\Editor\Data\Managed/UnityEngine/UnityEngine.WindModule.dll
-r:D:\Programmas\Unity2018.3\Editor\Data\Managed/UnityEngine/UnityEngine.XRModule.dll
-r:D:\Programmas\Unity2018.3\Editor\Data\Managed/UnityEditor.dll
-r:D:\Programmas\Unity2018.3\Editor\Data\Managed/Unity.Locator.dll
-r:D:/Programmas/Unity2018.3/Editor/Data/UnityExtensions/Unity/GUISystem/UnityEngine.UI.dll
-r:D:/Programmas/Unity2018.3/Editor/Data/UnityExtensions/Unity/GUISystem/Editor/UnityEditor.UI.dll
-r:D:/Programmas/Unity2018.3/Editor/Data/UnityExtensions/Unity/TestRunner/Editor/UnityEditor.TestRunner.dll
-r:D:/Programmas/Unity2018.3/Editor/Data/UnityExtensions/Unity/TestRunner/UnityEngine.TestRunner.dll
-r:D:/Programmas/Unity2018.3/Editor/Data/UnityExtensions/Unity/TestRunner/net35/unity-custom/nunit.framework.dll
-r:D:/Programmas/Unity2018.3/Editor/Data/UnityExtensions/Unity/Timeline/RuntimeEditor/UnityEngine.Timeline.dll
-r:D:/Programmas/Unity2018.3/Editor/Data/UnityExtensions/Unity/Timeline/Editor/UnityEditor.Timeline.dll
-r:D:/Programmas/Unity2018.3/Editor/Data/UnityExtensions/Unity/Networking/UnityEngine.Networking.dll
-r:D:/Programmas/Unity2018.3/Editor/Data/UnityExtensions/Unity/Networking/Editor/UnityEditor.Networking.dll
-r:D:/Programmas/Unity2018.3/Editor/Data/PlaybackEngines/VuforiaSupport/Managed/Editor/Vuforia.UnityExtensions.Editor.dll
-r:D:/Programmas/Unity2018.3/Editor/Data/PlaybackEngines/VuforiaSupport/Managed/Runtime/Vuforia.UnityExtensions.dll
-r:D:/Programmas/Unity2018.3/Editor/Data/UnityExtensions/Unity/UnityGoogleAudioSpatializer/Editor/UnityEditor.GoogleAudioSpatializer.dll
-r:D:/Programmas/Unity2018.3/Editor/Data/UnityExtensions/Unity/UnityGoogleAudioSpatializer/RuntimeEditor/UnityEngine.GoogleAudioSpatializer.dll
-r:D:/Programmas/Unity2018.3/Editor/Data/UnityExtensions/Unity/UnitySpatialTracking/Editor/UnityEditor.SpatialTracking.dll
-r:D:/Programmas/Unity2018.3/Editor/Data/UnityExtensions/Unity/UnitySpatialTracking/RuntimeEditor/UnityEngine.SpatialTracking.dll
-r:D:/Programmas/Unity2018.3/Editor/Data/UnityExtensions/Unity/UnityVR/Editor/UnityEditor.VR.dll
-r:D:/Programmas/Unity2018.3/Editor/Data/Managed/UnityEditor.Graphs.dll
-r:D:/Programmas/Unity2018.3/Editor/Data/PlaybackEngines/AndroidPlayer/UnityEditor.Android.Extensions.dll
-r:D:/Programmas/Unity2018.3/Editor/Data/PlaybackEngines/iOSSupport/UnityEditor.iOS.Extensions.dll
-r:D:/Programmas/Unity2018.3/Editor/Data/PlaybackEngines/WebGLSupport/UnityEditor.WebGL.Extensions.dll
-r:D:/Programmas/Unity2018.3/Editor/Data/PlaybackEngines/windowsstandalonesupport/UnityEditor.WindowsStandalone.Extensions.dll
-r:"C:/Program Files (x86)/Microsoft Visual Studio Tools for Unity/15.0/Editor/SyntaxTree.VisualStudio.Unity.Bridge.dll"
-r:"F:/Unity Projecten/2018/ClimbingGame/Assets/Addons/Demigiant/DemiLib/Core/DemiLib.dll"
-r:"F:/Unity Projecten/2018/ClimbingGame/Assets/Addons/Demigiant/DemiLib/Core/Editor/DemiEditor.dll"
-r:"F:/Unity Projecten/2018/ClimbingGame/Assets/Addons/Demigiant/DOTween/DOTween.dll"
-r:"F:/Unity Projecten/2018/ClimbingGame/Assets/Addons/Demigiant/DOTween/DOTween43.dll"
-r:"F:/Unity Projecten/2018/ClimbingGame/Assets/Addons/Demigiant/DOTween/DOTween46.dll"
-r:"F:/Unity Projecten/2018/ClimbingGame/Assets/Addons/Demigiant/DOTween/DOTween50.dll"
-r:"F:/Unity Projecten/2018/ClimbingGame/Assets/Addons/Demigiant/DOTween/Editor/DOTweenEditor.dll"
-r:"F:/Unity Projecten/2018/ClimbingGame/Assets/Addons/Demigiant/DOTweenPro/DOTweenPro.dll"
-r:"F:/Unity Projecten/2018/ClimbingGame/Assets/Addons/Demigiant/DOTweenPro/Editor/DOTweenProEditor.dll"
-r:"F:/Unity Projecten/2018/ClimbingGame/Assets/Addons/JsonDotNet/Assemblies/Standalone/Newtonsoft.Json.dll"
-r:"F:/Unity Projecten/2018/ClimbingGame/Assets/Plugins/Mono.Data.SqliteClient.dll"
-r:"F:/Unity Projecten/2018/ClimbingGame/Assets/Scripts/RoyFrameWork/Serialize/ProtoBuf/protobuf-net.dll"
-r:"F:/Unity Projecten/2018/ClimbingGame/Library/PackageCache/com.unity.ads@2.0.8/Editor/UnityEditor.Advertisements.dll"
-r:"F:/Unity Projecten/2018/ClimbingGame/Library/PackageCache/com.unity.analytics@3.2.2/Unity.Analytics.Editor.dll"
-r:"F:/Unity Projecten/2018/ClimbingGame/Library/PackageCache/com.unity.analytics@3.2.2/Unity.Analytics.StandardEvents.dll"
-r:"F:/Unity Projecten/2018/ClimbingGame/Library/PackageCache/com.unity.analytics@3.2.2/Unity.Analytics.Tracker.dll"
-r:"F:/Unity Projecten/2018/ClimbingGame/Library/PackageCache/com.unity.probuilder@3.0.9/ProBuilder/AssetIdRemapUtility/Editor/AssetIdRemapUtility.dll"
-r:"F:/Unity Projecten/2018/ClimbingGame/Library/PackageCache/com.unity.probuilder@3.0.9/ProBuilder/Classes/ProBuilderCore.dll"
-r:"F:/Unity Projecten/2018/ClimbingGame/Library/PackageCache/com.unity.probuilder@3.0.9/ProBuilder/Classes/ProBuilderMeshOps.dll"
-r:"F:/Unity Projecten/2018/ClimbingGame/Library/PackageCache/com.unity.probuilder@3.0.9/ProBuilder/Classes/ClassesLib/KdTreeLib.dll"
-r:"F:/Unity Projecten/2018/ClimbingGame/Library/PackageCache/com.unity.probuilder@3.0.9/ProBuilder/Classes/ClassesLib/pb_Stl.dll"
-r:"F:/Unity Projecten/2018/ClimbingGame/Library/PackageCache/com.unity.probuilder@3.0.9/ProBuilder/Classes/ClassesLib/Poly2Tri.dll"
-r:"F:/Unity Projecten/2018/ClimbingGame/Library/PackageCache/com.unity.probuilder@3.0.9/ProBuilder/Editor/ProBuilderEditor.dll"
-r:"F:/Unity Projecten/2018/ClimbingGame/Library/PackageCache/com.unity.purchasing@2.0.3/Editor/UnityEditor.Purchasing.dll"
-r:"F:/Unity Projecten/2018/ClimbingGame/Library/PackageCache/com.unity.render-pipelines.high-definition@4.10.0-preview/Editor/Core/ShaderGenerator/ICSharpCode.NRefactory.dll"
-r:D:/Programmas/Unity2018.3/Editor/Data/PlaybackEngines/iOSSupport\UnityEditor.iOS.Extensions.Xcode.dll
-r:D:/Programmas/Unity2018.3/Editor/Data/PlaybackEngines/iOSSupport\UnityEditor.iOS.Extensions.Common.dll
-r:D:\Programmas\Unity2018.3\Editor\Data\MonoBleedingEdge\lib\mono\4.7.1-api\mscorlib.dll
-r:D:\Programmas\Unity2018.3\Editor\Data\MonoBleedingEdge\lib\mono\4.7.1-api\System.dll
-r:D:\Programmas\Unity2018.3\Editor\Data\MonoBleedingEdge\lib\mono\4.7.1-api\System.Core.dll
-r:D:\Programmas\Unity2018.3\Editor\Data\MonoBleedingEdge\lib\mono\4.7.1-api\System.Runtime.Serialization.dll
-r:D:\Programmas\Unity2018.3\Editor\Data\MonoBleedingEdge\lib\mono\4.7.1-api\System.Xml.dll
-r:D:\Programmas\Unity2018.3\Editor\Data\MonoBleedingEdge\lib\mono\4.7.1-api\System.Xml.Linq.dll
-r:D:\Programmas\Unity2018.3\Editor\Data\MonoBleedingEdge\lib\mono\4.7.1-api\System.Numerics.dll
-r:D:\Programmas\Unity2018.3\Editor\Data\MonoBleedingEdge\lib\mono\4.7.1-api\System.Numerics.Vectors.dll
-r:D:\Programmas\Unity2018.3\Editor\Data\MonoBleedingEdge\lib\mono\4.7.1-api\System.Net.Http.dll
-r:D:\Programmas\Unity2018.3\Editor\Data\MonoBleedingEdge\lib\mono\4.7.1-api\Microsoft.CSharp.dll
-r:D:\Programmas\Unity2018.3\Editor\Data\MonoBleedingEdge\lib\mono\4.7.1-api\System.Data.dll
-r:D:\Programmas\Unity2018.3\Editor\Data\MonoBleedingEdge\lib\mono\4.7.1-api\Facades\Microsoft.Win32.Primitives.dll
-r:D:\Programmas\Unity2018.3\Editor\Data\MonoBleedingEdge\lib\mono\4.7.1-api\Facades\netstandard.dll
-r:D:\Programmas\Unity2018.3\Editor\Data\MonoBleedingEdge\lib\mono\4.7.1-api\Facades\System.AppContext.dll
-r:D:\Programmas\Unity2018.3\Editor\Data\MonoBleedingEdge\lib\mono\4.7.1-api\Facades\System.Collections.Concurrent.dll
-r:D:\Programmas\Unity2018.3\Editor\Data\MonoBleedingEdge\lib\mono\4.7.1-api\Facades\System.Collections.dll
-r:D:\Programmas\Unity2018.3\Editor\Data\MonoBleedingEdge\lib\mono\4.7.1-api\Facades\System.Collections.NonGeneric.dll
-r:D:\Programmas\Unity2018.3\Editor\Data\MonoBleedingEdge\lib\mono\4.7.1-api\Facades\System.Collections.Specialized.dll
-r:D:\Programmas\Unity2018.3\Editor\Data\MonoBleedingEdge\lib\mono\4.7.1-api\Facades\System.ComponentModel.Annotations.dll
-r:D:\Programmas\Unity2018.3\Editor\Data\MonoBleedingEdge\lib\mono\4.7.1-api\Facades\System.ComponentModel.dll
-r:D:\Programmas\Unity2018.3\Editor\Data\MonoBleedingEdge\lib\mono\4.7.1-api\Facades\System.ComponentModel.EventBasedAsync.dll
-r:D:\Programmas\Unity2018.3\Editor\Data\MonoBleedingEdge\lib\mono\4.7.1-api\Facades\System.ComponentModel.Primitives.dll
-r:D:\Programmas\Unity2018.3\Editor\Data\MonoBleedingEdge\lib\mono\4.7.1-api\Facades\System.ComponentModel.TypeConverter.dll
-r:D:\Programmas\Unity2018.3\Editor\Data\MonoBleedingEdge\lib\mono\4.7.1-api\Facades\System.Console.dll
-r:D:\Programmas\Unity2018.3\Editor\Data\MonoBleedingEdge\lib\mono\4.7.1-api\Facades\System.Data.Common.dll
-r:D:\Programmas\Unity2018.3\Editor\Data\MonoBleedingEdge\lib\mono\4.7.1-api\Facades\System.Diagnostics.Contracts.dll
-r:D:\Programmas\Unity2018.3\Editor\Data\MonoBleedingEdge\lib\mono\4.7.1-api\Facades\System.Diagnostics.Debug.dll
-r:D:\Programmas\Unity2018.3\Editor\Data\MonoBleedingEdge\lib\mono\4.7.1-api\Facades\System.Diagnostics.FileVersionInfo.dll
-r:D:\Programmas\Unity2018.3\Editor\Data\MonoBleedingEdge\lib\mono\4.7.1-api\Facades\System.Diagnostics.Process.dll
-r:D:\Programmas\Unity2018.3\Editor\Data\MonoBleedingEdge\lib\mono\4.7.1-api\Facades\System.Diagnostics.StackTrace.dll
-r:D:\Programmas\Unity2018.3\Editor\Data\MonoBleedingEdge\lib\mono\4.7.1-api\Facades\System.Diagnostics.TextWriterTraceListener.dll
-r:D:\Programmas\Unity2018.3\Editor\Data\MonoBleedingEdge\lib\mono\4.7.1-api\Facades\System.Diagnostics.Tools.dll
-r:D:\Programmas\Unity2018.3\Editor\Data\MonoBleedingEdge\lib\mono\4.7.1-api\Facades\System.Diagnostics.TraceSource.dll
-r:D:\Programmas\Unity2018.3\Editor\Data\MonoBleedingEdge\lib\mono\4.7.1-api\Facades\System.Drawing.Primitives.dll
-r:D:\Programmas\Unity2018.3\Editor\Data\MonoBleedingEdge\lib\mono\4.7.1-api\Facades\System.Dynamic.Runtime.dll
-r:D:\Programmas\Unity2018.3\Editor\Data\MonoBleedingEdge\lib\mono\4.7.1-api\Facades\System.Globalization.Calendars.dll
-r:D:\Programmas\Unity2018.3\Editor\Data\MonoBleedingEdge\lib\mono\4.7.1-api\Facades\System.Globalization.dll
-r:D:\Programmas\Unity2018.3\Editor\Data\MonoBleedingEdge\lib\mono\4.7.1-api\Facades\System.Globalization.Extensions.dll
-r:D:\Programmas\Unity2018.3\Editor\Data\MonoBleedingEdge\lib\mono\4.7.1-api\Facades\System.IO.Compression.ZipFile.dll
-r:D:\Programmas\Unity2018.3\Editor\Data\MonoBleedingEdge\lib\mono\4.7.1-api\Facades\System.IO.dll
-r:D:\Programmas\Unity2018.3\Editor\Data\MonoBleedingEdge\lib\mono\4.7.1-api\Facades\System.IO.FileSystem.dll
-r:D:\Programmas\Unity2018.3\Editor\Data\MonoBleedingEdge\lib\mono\4.7.1-api\Facades\System.IO.FileSystem.DriveInfo.dll
-r:D:\Programmas\Unity2018.3\Editor\Data\MonoBleedingEdge\lib\mono\4.7.1-api\Facades\System.IO.FileSystem.Primitives.dll
-r:D:\Programmas\Unity2018.3\Editor\Data\MonoBleedingEdge\lib\mono\4.7.1-api\Facades\System.IO.FileSystem.Watcher.dll
-r:D:\Programmas\Unity2018.3\Editor\Data\MonoBleedingEdge\lib\mono\4.7.1-api\Facades\System.IO.IsolatedStorage.dll
-r:D:\Programmas\Unity2018.3\Editor\Data\MonoBleedingEdge\lib\mono\4.7.1-api\Facades\System.IO.MemoryMappedFiles.dll
-r:D:\Programmas\Unity2018.3\Editor\Data\MonoBleedingEdge\lib\mono\4.7.1-api\Facades\System.IO.Pipes.dll
-r:D:\Programmas\Unity2018.3\Editor\Data\MonoBleedingEdge\lib\mono\4.7.1-api\Facades\System.IO.UnmanagedMemoryStream.dll
-r:D:\Programmas\Unity2018.3\Editor\Data\MonoBleedingEdge\lib\mono\4.7.1-api\Facades\System.Linq.dll
-r:D:\Programmas\Unity2018.3\Editor\Data\MonoBleedingEdge\lib\mono\4.7.1-api\Facades\System.Linq.Expressions.dll
-r:D:\Programmas\Unity2018.3\Editor\Data\MonoBleedingEdge\lib\mono\4.7.1-api\Facades\System.Linq.Parallel.dll
-r:D:\Programmas\Unity2018.3\Editor\Data\MonoBleedingEdge\lib\mono\4.7.1-api\Facades\System.Linq.Queryable.dll
-r:D:\Programmas\Unity2018.3\Editor\Data\MonoBleedingEdge\lib\mono\4.7.1-api\Facades\System.Net.Http.Rtc.dll
-r:D:\Programmas\Unity2018.3\Editor\Data\MonoBleedingEdge\lib\mono\4.7.1-api\Facades\System.Net.NameResolution.dll
-r:D:\Programmas\Unity2018.3\Editor\Data\MonoBleedingEdge\lib\mono\4.7.1-api\Facades\System.Net.NetworkInformation.dll
-r:D:\Programmas\Unity2018.3\Editor\Data\MonoBleedingEdge\lib\mono\4.7.1-api\Facades\System.Net.Ping.dll
-r:D:\Programmas\Unity2018.3\Editor\Data\MonoBleedingEdge\lib\mono\4.7.1-api\Facades\System.Net.Primitives.dll
-r:D:\Programmas\Unity2018.3\Editor\Data\MonoBleedingEdge\lib\mono\4.7.1-api\Facades\System.Net.Requests.dll
-r:D:\Programmas\Unity2018.3\Editor\Data\MonoBleedingEdge\lib\mono\4.7.1-api\Facades\System.Net.Security.dll
-r:D:\Programmas\Unity2018.3\Editor\Data\MonoBleedingEdge\lib\mono\4.7.1-api\Facades\System.Net.Sockets.dll
-r:D:\Programmas\Unity2018.3\Editor\Data\MonoBleedingEdge\lib\mono\4.7.1-api\Facades\System.Net.WebHeaderCollection.dll
-r:D:\Programmas\Unity2018.3\Editor\Data\MonoBleedingEdge\lib\mono\4.7.1-api\Facades\System.Net.WebSockets.Client.dll
-r:D:\Programmas\Unity2018.3\Editor\Data\MonoBleedingEdge\lib\mono\4.7.1-api\Facades\System.Net.WebSockets.dll
-r:D:\Programmas\Unity2018.3\Editor\Data\MonoBleedingEdge\lib\mono\4.7.1-api\Facades\System.ObjectModel.dll
-r:D:\Programmas\Unity2018.3\Editor\Data\MonoBleedingEdge\lib\mono\4.7.1-api\Facades\System.Reflection.dll
-r:D:\Programmas\Unity2018.3\Editor\Data\MonoBleedingEdge\lib\mono\4.7.1-api\Facades\System.Reflection.Emit.dll
-r:D:\Programmas\Unity2018.3\Editor\Data\MonoBleedingEdge\lib\mono\4.7.1-api\Facades\System.Reflection.Emit.ILGeneration.dll
-r:D:\Programmas\Unity2018.3\Editor\Data\MonoBleedingEdge\lib\mono\4.7.1-api\Facades\System.Reflection.Emit.Lightweight.dll
-r:D:\Programmas\Unity2018.3\Editor\Data\MonoBleedingEdge\lib\mono\4.7.1-api\Facades\System.Reflection.Extensions.dll
-r:D:\Programmas\Unity2018.3\Editor\Data\MonoBleedingEdge\lib\mono\4.7.1-api\Facades\System.Reflection.Primitives.dll
-r:D:\Programmas\Unity2018.3\Editor\Data\MonoBleedingEdge\lib\mono\4.7.1-api\Facades\System.Resources.Reader.dll
-r:D:\Programmas\Unity2018.3\Editor\Data\MonoBleedingEdge\lib\mono\4.7.1-api\Facades\System.Resources.ResourceManager.dll
-r:D:\Programmas\Unity2018.3\Editor\Data\MonoBleedingEdge\lib\mono\4.7.1-api\Facades\System.Resources.Writer.dll
-r:D:\Programmas\Unity2018.3\Editor\Data\MonoBleedingEdge\lib\mono\4.7.1-api\Facades\System.Runtime.CompilerServices.VisualC.dll
-r:D:\Programmas\Unity2018.3\Editor\Data\MonoBleedingEdge\lib\mono\4.7.1-api\Facades\System.Runtime.dll
-r:D:\Programmas\Unity2018.3\Editor\Data\MonoBleedingEdge\lib\mono\4.7.1-api\Facades\System.Runtime.Extensions.dll
-r:D:\Programmas\Unity2018.3\Editor\Data\MonoBleedingEdge\lib\mono\4.7.1-api\Facades\System.Runtime.Handles.dll
-r:D:\Programmas\Unity2018.3\Editor\Data\MonoBleedingEdge\lib\mono\4.7.1-api\Facades\System.Runtime.InteropServices.dll
-r:D:\Programmas\Unity2018.3\Editor\Data\MonoBleedingEdge\lib\mono\4.7.1-api\Facades\System.Runtime.InteropServices.RuntimeInformation.dll
-r:D:\Programmas\Unity2018.3\Editor\Data\MonoBleedingEdge\lib\mono\4.7.1-api\Facades\System.Runtime.InteropServices.WindowsRuntime.dll
-r:D:\Programmas\Unity2018.3\Editor\Data\MonoBleedingEdge\lib\mono\4.7.1-api\Facades\System.Runtime.Numerics.dll
-r:D:\Programmas\Unity2018.3\Editor\Data\MonoBleedingEdge\lib\mono\4.7.1-api\Facades\System.Runtime.Serialization.Formatters.dll
-r:D:\Programmas\Unity2018.3\Editor\Data\MonoBleedingEdge\lib\mono\4.7.1-api\Facades\System.Runtime.Serialization.Json.dll
-r:D:\Programmas\Unity2018.3\Editor\Data\MonoBleedingEdge\lib\mono\4.7.1-api\Facades\System.Runtime.Serialization.Primitives.dll
-r:D:\Programmas\Unity2018.3\Editor\Data\MonoBleedingEdge\lib\mono\4.7.1-api\Facades\System.Runtime.Serialization.Xml.dll
-r:D:\Programmas\Unity2018.3\Editor\Data\MonoBleedingEdge\lib\mono\4.7.1-api\Facades\System.Security.Claims.dll
-r:D:\Programmas\Unity2018.3\Editor\Data\MonoBleedingEdge\lib\mono\4.7.1-api\Facades\System.Security.Cryptography.Algorithms.dll
-r:D:\Programmas\Unity2018.3\Editor\Data\MonoBleedingEdge\lib\mono\4.7.1-api\Facades\System.Security.Cryptography.Csp.dll
-r:D:\Programmas\Unity2018.3\Editor\Data\MonoBleedingEdge\lib\mono\4.7.1-api\Facades\System.Security.Cryptography.Encoding.dll
-r:D:\Programmas\Unity2018.3\Editor\Data\MonoBleedingEdge\lib\mono\4.7.1-api\Facades\System.Security.Cryptography.Primitives.dll
-r:D:\Programmas\Unity2018.3\Editor\Data\MonoBleedingEdge\lib\mono\4.7.1-api\Facades\System.Security.Cryptography.X509Certificates.dll
-r:D:\Programmas\Unity2018.3\Editor\Data\MonoBleedingEdge\lib\mono\4.7.1-api\Facades\System.Security.Principal.dll
-r:D:\Programmas\Unity2018.3\Editor\Data\MonoBleedingEdge\lib\mono\4.7.1-api\Facades\System.Security.SecureString.dll
-r:D:\Programmas\Unity2018.3\Editor\Data\MonoBleedingEdge\lib\mono\4.7.1-api\Facades\System.ServiceModel.Duplex.dll
-r:D:\Programmas\Unity2018.3\Editor\Data\MonoBleedingEdge\lib\mono\4.7.1-api\Facades\System.ServiceModel.Http.dll
-r:D:\Programmas\Unity2018.3\Editor\Data\MonoBleedingEdge\lib\mono\4.7.1-api\Facades\System.ServiceModel.NetTcp.dll
-r:D:\Programmas\Unity2018.3\Editor\Data\MonoBleedingEdge\lib\mono\4.7.1-api\Facades\System.ServiceModel.Primitives.dll
-r:D:\Programmas\Unity2018.3\Editor\Data\MonoBleedingEdge\lib\mono\4.7.1-api\Facades\System.ServiceModel.Security.dll
-r:D:\Programmas\Unity2018.3\Editor\Data\MonoBleedingEdge\lib\mono\4.7.1-api\Facades\System.Text.Encoding.dll
-r:D:\Programmas\Unity2018.3\Editor\Data\MonoBleedingEdge\lib\mono\4.7.1-api\Facades\System.Text.Encoding.Extensions.dll
-r:D:\Programmas\Unity2018.3\Editor\Data\MonoBleedingEdge\lib\mono\4.7.1-api\Facades\System.Text.RegularExpressions.dll
-r:D:\Programmas\Unity2018.3\Editor\Data\MonoBleedingEdge\lib\mono\4.7.1-api\Facades\System.Threading.dll
-r:D:\Programmas\Unity2018.3\Editor\Data\MonoBleedingEdge\lib\mono\4.7.1-api\Facades\System.Threading.Overlapped.dll
-r:D:\Programmas\Unity2018.3\Editor\Data\MonoBleedingEdge\lib\mono\4.7.1-api\Facades\System.Threading.Tasks.dll
-r:D:\Programmas\Unity2018.3\Editor\Data\MonoBleedingEdge\lib\mono\4.7.1-api\Facades\System.Threading.Tasks.Parallel.dll
-r:D:\Programmas\Unity2018.3\Editor\Data\MonoBleedingEdge\lib\mono\4.7.1-api\Facades\System.Threading.Thread.dll
-r:D:\Programmas\Unity2018.3\Editor\Data\MonoBleedingEdge\lib\mono\4.7.1-api\Facades\System.Threading.ThreadPool.dll
-r:D:\Programmas\Unity2018.3\Editor\Data\MonoBleedingEdge\lib\mono\4.7.1-api\Facades\System.Threading.Timer.dll
-r:D:\Programmas\Unity2018.3\Editor\Data\MonoBleedingEdge\lib\mono\4.7.1-api\Facades\System.ValueTuple.dll
-r:D:\Programmas\Unity2018.3\Editor\Data\MonoBleedingEdge\lib\mono\4.7.1-api\Facades\System.Xml.ReaderWriter.dll
-r:D:\Programmas\Unity2018.3\Editor\Data\MonoBleedingEdge\lib\mono\4.7.1-api\Facades\System.Xml.XDocument.dll
-r:D:\Programmas\Unity2018.3\Editor\Data\MonoBleedingEdge\lib\mono\4.7.1-api\Facades\System.Xml.XmlDocument.dll
-r:D:\Programmas\Unity2018.3\Editor\Data\MonoBleedingEdge\lib\mono\4.7.1-api\Facades\System.Xml.XmlSerializer.dll
-r:D:\Programmas\Unity2018.3\Editor\Data\MonoBleedingEdge\lib\mono\4.7.1-api\Facades\System.Xml.XPath.dll
-r:D:\Programmas\Unity2018.3\Editor\Data\MonoBleedingEdge\lib\mono\4.7.1-api\Facades\System.Xml.XPath.XDocument.dll
-r:D:\Programmas\Unity2018.3\Editor\Data\MonoBleedingEdge\lib\mono\unityscript\UnityScript.dll
-r:D:\Programmas\Unity2018.3\Editor\Data\MonoBleedingEdge\lib\mono\unityscript\UnityScript.Lang.dll
-r:D:\Programmas\Unity2018.3\Editor\Data\MonoBleedingEdge\lib\mono\unityscript\Boo.Lang.dll
-d:UNITY_5_3_OR_NEWER
-d:UNITY_5_4_OR_NEWER
-d:UNITY_5_5_OR_NEWER
-d:UNITY_5_6_OR_NEWER
-d:UNITY_2017_1_OR_NEWER
-d:UNITY_2017_2_OR_NEWER
-d:UNITY_2017_3_OR_NEWER
-d:UNITY_2017_4_OR_NEWER
-d:UNITY_2018_1_OR_NEWER
-d:UNITY_2018_2_OR_NEWER
-d:UNITY_2018_3_OR_NEWER
-d:UNITY_2018_3_10
-d:UNITY_2018_3
-d:UNITY_2018
-d:PLATFORM_ARCH_64
-d:UNITY_64
-d:UNITY_INCLUDE_TESTS
-d:ENABLE_AUDIO
-d:ENABLE_CACHING
-d:ENABLE_CLOTH
-d:ENABLE_DUCK_TYPING
-d:ENABLE_MICROPHONE
-d:ENABLE_MULTIPLE_DISPLAYS
-d:ENABLE_PHYSICS
-d:ENABLE_SPRITES
-d:ENABLE_GRID
-d:ENABLE_TILEMAP
-d:ENABLE_TERRAIN
-d:ENABLE_TEXTURE_STREAMING
-d:ENABLE_DIRECTOR
-d:ENABLE_UNET
-d:ENABLE_LZMA
-d:ENABLE_UNITYEVENTS
-d:ENABLE_WEBCAM
-d:ENABLE_WWW
-d:ENABLE_CLOUD_SERVICES_COLLAB
-d:ENABLE_CLOUD_SERVICES_COLLAB_SOFTLOCKS
-d:ENABLE_CLOUD_SERVICES_ADS
-d:ENABLE_CLOUD_HUB
-d:ENABLE_CLOUD_PROJECT_ID
-d:ENABLE_CLOUD_SERVICES_USE_WEBREQUEST
-d:ENABLE_CLOUD_SERVICES_UNET
-d:ENABLE_CLOUD_SERVICES_BUILD
-d:ENABLE_CLOUD_LICENSE
-d:ENABLE_EDITOR_HUB
-d:ENABLE_EDITOR_HUB_LICENSE
-d:ENABLE_WEBSOCKET_CLIENT
-d:ENABLE_DIRECTOR_AUDIO
-d:ENABLE_DIRECTOR_TEXTURE
-d:ENABLE_TIMELINE
-d:ENABLE_EDITOR_METRICS
-d:ENABLE_EDITOR_METRICS_CACHING
-d:ENABLE_MANAGED_JOBS
-d:ENABLE_MANAGED_TRANSFORM_JOBS
-d:ENABLE_MANAGED_ANIMATION_JOBS
-d:INCLUDE_DYNAMIC_GI
-d:INCLUDE_GI
-d:ENABLE_MONO_BDWGC
-d:PLATFORM_SUPPORTS_MONO
-d:RENDER_SOFTWARE_CURSOR
-d:INCLUDE_PUBNUB
-d:ENABLE_VIDEO
-d:ENABLE_CUSTOM_RENDER_TEXTURE
-d:ENABLE_LOCALIZATION
-d:PLATFORM_STANDALONE_WIN
-d:PLATFORM_STANDALONE
-d:UNITY_STANDALONE_WIN
-d:UNITY_STANDALONE
-d:ENABLE_SUBSTANCE
-d:ENABLE_RUNTIME_GI
-d:ENABLE_MOVIES
-d:ENABLE_NETWORK
-d:ENABLE_CRUNCH_TEXTURE_COMPRESSION
-d:ENABLE_UNITYWEBREQUEST
-d:ENABLE_CLOUD_SERVICES
-d:ENABLE_CLOUD_SERVICES_ANALYTICS
-d:ENABLE_CLOUD_SERVICES_PURCHASING
-d:ENABLE_CLOUD_SERVICES_CRASH_REPORTING
-d:ENABLE_OUT_OF_PROCESS_CRASH_HANDLER
-d:ENABLE_EVENT_QUEUE
-d:ENABLE_CLUSTER_SYNC
-d:ENABLE_CLUSTERINPUT
-d:ENABLE_VR
-d:ENABLE_AR
-d:ENABLE_WEBSOCKET_HOST
-d:ENABLE_MONO
-d:NET_4_6
-d:ENABLE_PROFILER
-d:DEBUG
-d:TRACE
-d:UNITY_ASSERTIONS
-d:UNITY_EDITOR
-d:UNITY_EDITOR_64
-d:UNITY_EDITOR_WIN
-d:ENABLE_UNITY_COLLECTIONS_CHECKS
-d:ENABLE_BURST_AOT
-d:UNITY_TEAM_LICENSE
-d:ENABLE_VSTU
-d:UNITY_PRO_LICENSE
-d:UNITY_POST_PROCESSING_STACK_V2
-d:CSHARP_7_OR_LATER
-d:CSHARP_7_3_OR_NEWER
-i:"F:/Unity Projecten/2018/ClimbingGame/Library/PackageCache/com.unity.render-pipelines.high-definition@4.10.0-preview/Editor/AssetProcessors/NormalMapFilteringTexturePostprocessor.cs"
-i:"F:/Unity Projecten/2018/ClimbingGame/Library/PackageCache/com.unity.render-pipelines.high-definition@4.10.0-preview/Editor/BuildProcessors/HDRPPreprocessBuild.cs"
-i:"F:/Unity Projecten/2018/ClimbingGame/Library/PackageCache/com.unity.render-pipelines.high-definition@4.10.0-preview/Editor/BuildProcessors/HDRPPreprocessShaders.cs"
-i:"F:/Unity Projecten/2018/ClimbingGame/Library/PackageCache/com.unity.render-pipelines.high-definition@4.10.0-preview/Editor/Core/CameraEditorUtils.cs"
-i:"F:/Unity Projecten/2018/ClimbingGame/Library/PackageCache/com.unity.render-pipelines.high-definition@4.10.0-preview/Editor/Core/Debugging/DebugState.cs"
-i:"F:/Unity Projecten/2018/ClimbingGame/Library/PackageCache/com.unity.render-pipelines.high-definition@4.10.0-preview/Editor/Core/Debugging/DebugUIDrawer.Builtins.cs"
-i:"F:/Unity Projecten/2018/ClimbingGame/Library/PackageCache/com.unity.render-pipelines.high-definition@4.10.0-preview/Editor/Core/Debugging/DebugUIDrawer.cs"
-i:"F:/Unity Projecten/2018/ClimbingGame/Library/PackageCache/com.unity.render-pipelines.high-definition@4.10.0-preview/Editor/Core/Debugging/DebugUIHandlerCanvasEditor.cs"
-i:"F:/Unity Projecten/2018/ClimbingGame/Library/PackageCache/com.unity.render-pipelines.high-definition@4.10.0-preview/Editor/Core/Debugging/DebugWindow.cs"
-i:"F:/Unity Projecten/2018/ClimbingGame/Library/PackageCache/com.unity.render-pipelines.high-definition@4.10.0-preview/Editor/Core/Debugging/UIFoldoutEditor.cs"
-i:"F:/Unity Projecten/2018/ClimbingGame/Library/PackageCache/com.unity.render-pipelines.high-definition@4.10.0-preview/Editor/Core/Gizmo/HierarchicalBox.cs"
-i:"F:/Unity Projecten/2018/ClimbingGame/Library/PackageCache/com.unity.render-pipelines.high-definition@4.10.0-preview/Editor/Core/Gizmo/HierarchicalSphere.cs"
-i:"F:/Unity Projecten/2018/ClimbingGame/Library/PackageCache/com.unity.render-pipelines.high-definition@4.10.0-preview/Editor/Core/Lighting/CoreLightEditorUtilities.cs"
-i:"F:/Unity Projecten/2018/ClimbingGame/Library/PackageCache/com.unity.render-pipelines.high-definition@4.10.0-preview/Editor/Core/ShaderGenerator/CSharpToHLSL.cs"
-i:"F:/Unity Projecten/2018/ClimbingGame/Library/PackageCache/com.unity.render-pipelines.high-definition@4.10.0-preview/Editor/Core/ShaderGenerator/ShaderGeneratorMenu.cs"
-i:"F:/Unity Projecten/2018/ClimbingGame/Library/PackageCache/com.unity.render-pipelines.high-definition@4.10.0-preview/Editor/Core/ShaderGenerator/ShaderTypeGeneration.cs"
-i:"F:/Unity Projecten/2018/ClimbingGame/Library/PackageCache/com.unity.render-pipelines.high-definition@4.10.0-preview/Editor/Core/TextureCombiner/TextureCombiner.cs"
-i:"F:/Unity Projecten/2018/ClimbingGame/Library/PackageCache/com.unity.render-pipelines.high-definition@4.10.0-preview/Editor/Lighting/AdditionalShadowDataEditor.cs"
-i:"F:/Unity Projecten/2018/ClimbingGame/Library/PackageCache/com.unity.render-pipelines.high-definition@4.10.0-preview/Editor/Lighting/HDAdditionalLightDataEditor.cs"
-i:"F:/Unity Projecten/2018/ClimbingGame/Library/PackageCache/com.unity.render-pipelines.high-definition@4.10.0-preview/Editor/Lighting/HDLightEditor.cs"
-i:"F:/Unity Projecten/2018/ClimbingGame/Library/PackageCache/com.unity.render-pipelines.high-definition@4.10.0-preview/Editor/Lighting/HDLightExplorerExtension.cs"
-i:"F:/Unity Projecten/2018/ClimbingGame/Library/PackageCache/com.unity.render-pipelines.high-definition@4.10.0-preview/Editor/Lighting/HDLightUI.ContextualMenu.cs"
-i:"F:/Unity Projecten/2018/ClimbingGame/Library/PackageCache/com.unity.render-pipelines.high-definition@4.10.0-preview/Editor/Lighting/HDLightUI.cs"
-i:"F:/Unity Projecten/2018/ClimbingGame/Library/PackageCache/com.unity.render-pipelines.high-definition@4.10.0-preview/Editor/Lighting/HDLightUI.Handles.cs"
-i:"F:/Unity Projecten/2018/ClimbingGame/Library/PackageCache/com.unity.render-pipelines.high-definition@4.10.0-preview/Editor/Lighting/HDLightUI.Skin.cs"
-i:"F:/Unity Projecten/2018/ClimbingGame/Library/PackageCache/com.unity.render-pipelines.high-definition@4.10.0-preview/Editor/Lighting/IndirectLightingControllerEditor.cs"
-i:"F:/Unity Projecten/2018/ClimbingGame/Library/PackageCache/com.unity.render-pipelines.high-definition@4.10.0-preview/Editor/Lighting/Reflection/EditorReflectionSystem.cs"
-i:"F:/Unity Projecten/2018/ClimbingGame/Library/PackageCache/com.unity.render-pipelines.high-definition@4.10.0-preview/Editor/Lighting/Reflection/EditorReflectionSystemGUI.cs"
-i:"F:/Unity Projecten/2018/ClimbingGame/Library/PackageCache/com.unity.render-pipelines.high-definition@4.10.0-preview/Editor/Lighting/Reflection/HDAdditionalReflectionDataEditor.cs"
-i:"F:/Unity Projecten/2018/ClimbingGame/Library/PackageCache/com.unity.render-pipelines.high-definition@4.10.0-preview/Editor/Lighting/Reflection/HDCubemapInspector.cs"
-i:"F:/Unity Projecten/2018/ClimbingGame/Library/PackageCache/com.unity.render-pipelines.high-definition@4.10.0-preview/Editor/Lighting/Reflection/HDProbeEditor.cs"
-i:"F:/Unity Projecten/2018/ClimbingGame/Library/PackageCache/com.unity.render-pipelines.high-definition@4.10.0-preview/Editor/Lighting/Reflection/HDProbeUI.ContextualMenu.cs"
-i:"F:/Unity Projecten/2018/ClimbingGame/Library/PackageCache/com.unity.render-pipelines.high-definition@4.10.0-preview/Editor/Lighting/Reflection/HDProbeUI.cs"
-i:"F:/Unity Projecten/2018/ClimbingGame/Library/PackageCache/com.unity.render-pipelines.high-definition@4.10.0-preview/Editor/Lighting/Reflection/HDProbeUI.Drawers.cs"
-i:"F:/Unity Projecten/2018/ClimbingGame/Library/PackageCache/com.unity.render-pipelines.high-definition@4.10.0-preview/Editor/Lighting/Reflection/HDProbeUI.Handles.cs"
-i:"F:/Unity Projecten/2018/ClimbingGame/Library/PackageCache/com.unity.render-pipelines.high-definition@4.10.0-preview/Editor/Lighting/Reflection/HDProbeUI.Skin.cs"
-i:"F:/Unity Projecten/2018/ClimbingGame/Library/PackageCache/com.unity.render-pipelines.high-definition@4.10.0-preview/Editor/Lighting/Reflection/HDProbeUI.Toolbar.cs"
-i:"F:/Unity Projecten/2018/ClimbingGame/Library/PackageCache/com.unity.render-pipelines.high-definition@4.10.0-preview/Editor/Lighting/Reflection/HDReflectionProbeEditor.cs"
-i:"F:/Unity Projecten/2018/ClimbingGame/Library/PackageCache/com.unity.render-pipelines.high-definition@4.10.0-preview/Editor/Lighting/Reflection/HDReflectionProbeEditor.Gizmos.cs"
-i:"F:/Unity Projecten/2018/ClimbingGame/Library/PackageCache/com.unity.render-pipelines.high-definition@4.10.0-preview/Editor/Lighting/Reflection/HDReflectionProbeEditor.Preview.cs"
-i:"F:/Unity Projecten/2018/ClimbingGame/Library/PackageCache/com.unity.render-pipelines.high-definition@4.10.0-preview/Editor/Lighting/Reflection/HDReflectionProbeEditor.ProbeUtility.cs"
-i:"F:/Unity Projecten/2018/ClimbingGame/Library/PackageCache/com.unity.render-pipelines.high-definition@4.10.0-preview/Editor/Lighting/Reflection/HDReflectionProbeEditor.Skin.cs"
-i:"F:/Unity Projecten/2018/ClimbingGame/Library/PackageCache/com.unity.render-pipelines.high-definition@4.10.0-preview/Editor/Lighting/Reflection/HDReflectionProbeUI.cs"
-i:"F:/Unity Projecten/2018/ClimbingGame/Library/PackageCache/com.unity.render-pipelines.high-definition@4.10.0-preview/Editor/Lighting/Reflection/HDScreenSpaceReflectionEditor.cs"
-i:"F:/Unity Projecten/2018/ClimbingGame/Library/PackageCache/com.unity.render-pipelines.high-definition@4.10.0-preview/Editor/Lighting/Reflection/PlanarReflectionProbeEditor.cs"
-i:"F:/Unity Projecten/2018/ClimbingGame/Library/PackageCache/com.unity.render-pipelines.high-definition@4.10.0-preview/Editor/Lighting/Reflection/PlanarReflectionProbeUI.cs"
-i:"F:/Unity Projecten/2018/ClimbingGame/Library/PackageCache/com.unity.render-pipelines.high-definition@4.10.0-preview/Editor/Lighting/Reflection/PlanarReflectionProbeUI.Handles.cs"
-i:"F:/Unity Projecten/2018/ClimbingGame/Library/PackageCache/com.unity.render-pipelines.high-definition@4.10.0-preview/Editor/Lighting/Reflection/ReflectionMenuItem.cs"
-i:"F:/Unity Projecten/2018/ClimbingGame/Library/PackageCache/com.unity.render-pipelines.high-definition@4.10.0-preview/Editor/Lighting/Reflection/ScreenSpaceRefractionEditor.cs"
-i:"F:/Unity Projecten/2018/ClimbingGame/Library/PackageCache/com.unity.render-pipelines.high-definition@4.10.0-preview/Editor/Lighting/Reflection/SerializedHDProbe.cs"
-i:"F:/Unity Projecten/2018/ClimbingGame/Library/PackageCache/com.unity.render-pipelines.high-definition@4.10.0-preview/Editor/Lighting/Reflection/SerializedHDReflectionProbe.cs"
-i:"F:/Unity Projecten/2018/ClimbingGame/Library/PackageCache/com.unity.render-pipelines.high-definition@4.10.0-preview/Editor/Lighting/Reflection/SerializedPlanarReflectionProbe.cs"
-i:"F:/Unity Projecten/2018/ClimbingGame/Library/PackageCache/com.unity.render-pipelines.high-definition@4.10.0-preview/Editor/Lighting/Reflection/Volume/InfluenceVolumeUI.cs"
-i:"F:/Unity Projecten/2018/ClimbingGame/Library/PackageCache/com.unity.render-pipelines.high-definition@4.10.0-preview/Editor/Lighting/Reflection/Volume/InfluenceVolumeUI.Drawers.cs"
-i:"F:/Unity Projecten/2018/ClimbingGame/Library/PackageCache/com.unity.render-pipelines.high-definition@4.10.0-preview/Editor/Lighting/Reflection/Volume/InfluenceVolumeUI.Gizmos.cs"
-i:"F:/Unity Projecten/2018/ClimbingGame/Library/PackageCache/com.unity.render-pipelines.high-definition@4.10.0-preview/Editor/Lighting/Reflection/Volume/InfluenceVolumeUI.Handles.cs"
-i:"F:/Unity Projecten/2018/ClimbingGame/Library/PackageCache/com.unity.render-pipelines.high-definition@4.10.0-preview/Editor/Lighting/Reflection/Volume/InfluenceVolumeUI.Skin.cs"
-i:"F:/Unity Projecten/2018/ClimbingGame/Library/PackageCache/com.unity.render-pipelines.high-definition@4.10.0-preview/Editor/Lighting/Reflection/Volume/ProxyVolumeEditor.cs"
-i:"F:/Unity Projecten/2018/ClimbingGame/Library/PackageCache/com.unity.render-pipelines.high-definition@4.10.0-preview/Editor/Lighting/Reflection/Volume/ProxyVolumeUI.cs"
-i:"F:/Unity Projecten/2018/ClimbingGame/Library/PackageCache/com.unity.render-pipelines.high-definition@4.10.0-preview/Editor/Lighting/Reflection/Volume/ReflectionProxyVolumeComponentUI.cs"
-i:"F:/Unity Projecten/2018/ClimbingGame/Library/PackageCache/com.unity.render-pipelines.high-definition@4.10.0-preview/Editor/Lighting/Reflection/Volume/SerializedInfluenceVolume.cs"
-i:"F:/Unity Projecten/2018/ClimbingGame/Library/PackageCache/com.unity.render-pipelines.high-definition@4.10.0-preview/Editor/Lighting/Reflection/Volume/SerializedProxyVolume.cs"
-i:"F:/Unity Projecten/2018/ClimbingGame/Library/PackageCache/com.unity.render-pipelines.high-definition@4.10.0-preview/Editor/Lighting/Reflection/Volume/SerializedReflectionProxyVolumeComponent.cs"
-i:"F:/Unity Projecten/2018/ClimbingGame/Library/PackageCache/com.unity.render-pipelines.high-definition@4.10.0-preview/Editor/Lighting/SerializedHDLight.cs"
-i:"F:/Unity Projecten/2018/ClimbingGame/Library/PackageCache/com.unity.render-pipelines.high-definition@4.10.0-preview/Editor/Lighting/Shadow/ContactShadowsEditor.cs"
-i:"F:/Unity Projecten/2018/ClimbingGame/Library/PackageCache/com.unity.render-pipelines.high-definition@4.10.0-preview/Editor/Lighting/Shadow/HDShadowSettingsEditor.cs"
-i:"F:/Unity Projecten/2018/ClimbingGame/Library/PackageCache/com.unity.render-pipelines.high-definition@4.10.0-preview/Editor/Lighting/VolumetricLighting/DensityVolumeEditor.cs"
-i:"F:/Unity Projecten/2018/ClimbingGame/Library/PackageCache/com.unity.render-pipelines.high-definition@4.10.0-preview/Editor/Lighting/VolumetricLighting/DensityVolumeTextureTool.cs"
-i:"F:/Unity Projecten/2018/ClimbingGame/Library/PackageCache/com.unity.render-pipelines.high-definition@4.10.0-preview/Editor/Lighting/VolumetricLighting/VolumetricMenuItem.cs"
-i:"F:/Unity Projecten/2018/ClimbingGame/Library/PackageCache/com.unity.render-pipelines.high-definition@4.10.0-preview/Editor/Material/AxF/AxFShaderPreprocessor.cs"
-i:"F:/Unity Projecten/2018/ClimbingGame/Library/PackageCache/com.unity.render-pipelines.high-definition@4.10.0-preview/Editor/Material/AxF/AxFUI.cs"
-i:"F:/Unity Projecten/2018/ClimbingGame/Library/PackageCache/com.unity.render-pipelines.high-definition@4.10.0-preview/Editor/Material/BaseShaderPreprocessor.cs"
-i:"F:/Unity Projecten/2018/ClimbingGame/Library/PackageCache/com.unity.render-pipelines.high-definition@4.10.0-preview/Editor/Material/Decal/DecalMenuItems.cs"
-i:"F:/Unity Projecten/2018/ClimbingGame/Library/PackageCache/com.unity.render-pipelines.high-definition@4.10.0-preview/Editor/Material/Decal/DecalProjectorComponentEditor.cs"
-i:"F:/Unity Projecten/2018/ClimbingGame/Library/PackageCache/com.unity.render-pipelines.high-definition@4.10.0-preview/Editor/Material/Decal/DecalProjectorComponentHandle.cs"
-i:"F:/Unity Projecten/2018/ClimbingGame/Library/PackageCache/com.unity.render-pipelines.high-definition@4.10.0-preview/Editor/Material/Decal/DecalUI.cs"
-i:"F:/Unity Projecten/2018/ClimbingGame/Library/PackageCache/com.unity.render-pipelines.high-definition@4.10.0-preview/Editor/Material/DiffusionProfile/DiffusionProfileSettingsEditor.cs"
-i:"F:/Unity Projecten/2018/ClimbingGame/Library/PackageCache/com.unity.render-pipelines.high-definition@4.10.0-preview/Editor/Material/DiffusionProfile/DiffusionProfileSettingsEditor.Styles.cs"
-i:"F:/Unity Projecten/2018/ClimbingGame/Library/PackageCache/com.unity.render-pipelines.high-definition@4.10.0-preview/Editor/Material/ExpandableAreaMaterial.cs"
-i:"F:/Unity Projecten/2018/ClimbingGame/Library/PackageCache/com.unity.render-pipelines.high-definition@4.10.0-preview/Editor/Material/Fabric/ShaderGraph/CreateFabricShaderGraph.cs"
-i:"F:/Unity Projecten/2018/ClimbingGame/Library/PackageCache/com.unity.render-pipelines.high-definition@4.10.0-preview/Editor/Material/Fabric/ShaderGraph/FabricMasterNode.cs"
-i:"F:/Unity Projecten/2018/ClimbingGame/Library/PackageCache/com.unity.render-pipelines.high-definition@4.10.0-preview/Editor/Material/Fabric/ShaderGraph/FabricSettingsView.cs"
-i:"F:/Unity Projecten/2018/ClimbingGame/Library/PackageCache/com.unity.render-pipelines.high-definition@4.10.0-preview/Editor/Material/Fabric/ShaderGraph/FabricSubShader.cs"
-i:"F:/Unity Projecten/2018/ClimbingGame/Library/PackageCache/com.unity.render-pipelines.high-definition@4.10.0-preview/Editor/Material/Fabric/ShaderGraph/FabricUI.cs"
-i:"F:/Unity Projecten/2018/ClimbingGame/Library/PackageCache/com.unity.render-pipelines.high-definition@4.10.0-preview/Editor/Material/Fabric/ShaderGraph/IFabricSubShader.cs"
-i:"F:/Unity Projecten/2018/ClimbingGame/Library/PackageCache/com.unity.render-pipelines.high-definition@4.10.0-preview/Editor/Material/LayeredLit/LayeredLitUI.cs"
-i:"F:/Unity Projecten/2018/ClimbingGame/Library/PackageCache/com.unity.render-pipelines.high-definition@4.10.0-preview/Editor/Material/Lit/BaseLitUI.cs"
-i:"F:/Unity Projecten/2018/ClimbingGame/Library/PackageCache/com.unity.render-pipelines.high-definition@4.10.0-preview/Editor/Material/Lit/LitShaderPreprocessor.cs"
-i:"F:/Unity Projecten/2018/ClimbingGame/Library/PackageCache/com.unity.render-pipelines.high-definition@4.10.0-preview/Editor/Material/Lit/LitUI.cs"
-i:"F:/Unity Projecten/2018/ClimbingGame/Library/PackageCache/com.unity.render-pipelines.high-definition@4.10.0-preview/Editor/Material/Lit/ShaderGraph/CreateHDLitShaderGraph.cs"
-i:"F:/Unity Projecten/2018/ClimbingGame/Library/PackageCache/com.unity.render-pipelines.high-definition@4.10.0-preview/Editor/Material/Lit/ShaderGraph/HDLitMasterNode.cs"
-i:"F:/Unity Projecten/2018/ClimbingGame/Library/PackageCache/com.unity.render-pipelines.high-definition@4.10.0-preview/Editor/Material/Lit/ShaderGraph/HDLitSettingsView.cs"
-i:"F:/Unity Projecten/2018/ClimbingGame/Library/PackageCache/com.unity.render-pipelines.high-definition@4.10.0-preview/Editor/Material/Lit/ShaderGraph/HDLitSubShader.cs"
-i:"F:/Unity Projecten/2018/ClimbingGame/Library/PackageCache/com.unity.render-pipelines.high-definition@4.10.0-preview/Editor/Material/Lit/ShaderGraph/HDLitUI.cs"
-i:"F:/Unity Projecten/2018/ClimbingGame/Library/PackageCache/com.unity.render-pipelines.high-definition@4.10.0-preview/Editor/Material/Lit/ShaderGraph/HDUnlitUI.cs"
-i:"F:/Unity Projecten/2018/ClimbingGame/Library/PackageCache/com.unity.render-pipelines.high-definition@4.10.0-preview/Editor/Material/Lit/ShaderGraph/IHDLitSubShader.cs"
-i:"F:/Unity Projecten/2018/ClimbingGame/Library/PackageCache/com.unity.render-pipelines.high-definition@4.10.0-preview/Editor/Material/Lit/StandardsToHDLitMaterialUpgrader.cs"
-i:"F:/Unity Projecten/2018/ClimbingGame/Library/PackageCache/com.unity.render-pipelines.high-definition@4.10.0-preview/Editor/Material/PBR/ShaderGraph/HDPBRSubShader.cs"
-i:"F:/Unity Projecten/2018/ClimbingGame/Library/PackageCache/com.unity.render-pipelines.high-definition@4.10.0-preview/Editor/Material/StackLit/ShaderGraph/CreateStackLitShaderGraph.cs"
-i:"F:/Unity Projecten/2018/ClimbingGame/Library/PackageCache/com.unity.render-pipelines.high-definition@4.10.0-preview/Editor/Material/StackLit/ShaderGraph/IStackLitSubShader.cs"
-i:"F:/Unity Projecten/2018/ClimbingGame/Library/PackageCache/com.unity.render-pipelines.high-definition@4.10.0-preview/Editor/Material/StackLit/ShaderGraph/StackLitMasterNode.cs"
-i:"F:/Unity Projecten/2018/ClimbingGame/Library/PackageCache/com.unity.render-pipelines.high-definition@4.10.0-preview/Editor/Material/StackLit/ShaderGraph/StackLitSettingsView.cs"
-i:"F:/Unity Projecten/2018/ClimbingGame/Library/PackageCache/com.unity.render-pipelines.high-definition@4.10.0-preview/Editor/Material/StackLit/ShaderGraph/StackLitSubShader.cs"
-i:"F:/Unity Projecten/2018/ClimbingGame/Library/PackageCache/com.unity.render-pipelines.high-definition@4.10.0-preview/Editor/Material/StackLit/ShaderGraph/StackLitUI.cs"
-i:"F:/Unity Projecten/2018/ClimbingGame/Library/PackageCache/com.unity.render-pipelines.high-definition@4.10.0-preview/Editor/Material/TerrainLit/TerrainLitUI.cs"
-i:"F:/Unity Projecten/2018/ClimbingGame/Library/PackageCache/com.unity.render-pipelines.high-definition@4.10.0-preview/Editor/Material/Unlit/BaseUnlitUI.cs"
-i:"F:/Unity Projecten/2018/ClimbingGame/Library/PackageCache/com.unity.render-pipelines.high-definition@4.10.0-preview/Editor/Material/Unlit/ShaderGraph/HDUnlitSubShader.cs"
-i:"F:/Unity Projecten/2018/ClimbingGame/Library/PackageCache/com.unity.render-pipelines.high-definition@4.10.0-preview/Editor/Material/Unlit/UnlitsToHDUnlitUpgrader.cs"
-i:"F:/Unity Projecten/2018/ClimbingGame/Library/PackageCache/com.unity.render-pipelines.high-definition@4.10.0-preview/Editor/Material/Unlit/UnlitUI.cs"
-i:"F:/Unity Projecten/2018/ClimbingGame/Library/PackageCache/com.unity.render-pipelines.high-definition@4.10.0-preview/Editor/RenderPipeline/BaseUI.cs"
-i:"F:/Unity Projecten/2018/ClimbingGame/Library/PackageCache/com.unity.render-pipelines.high-definition@4.10.0-preview/Editor/RenderPipeline/Camera/HDAdditionalCameraEditor.cs"
-i:"F:/Unity Projecten/2018/ClimbingGame/Library/PackageCache/com.unity.render-pipelines.high-definition@4.10.0-preview/Editor/RenderPipeline/Camera/HDCameraEditor.cs"
-i:"F:/Unity Projecten/2018/ClimbingGame/Library/PackageCache/com.unity.render-pipelines.high-definition@4.10.0-preview/Editor/RenderPipeline/Camera/HDCameraEditor.Handlers.cs"
-i:"F:/Unity Projecten/2018/ClimbingGame/Library/PackageCache/com.unity.render-pipelines.high-definition@4.10.0-preview/Editor/RenderPipeline/Camera/HDCameraUI.cs"
-i:"F:/Unity Projecten/2018/ClimbingGame/Library/PackageCache/com.unity.render-pipelines.high-definition@4.10.0-preview/Editor/RenderPipeline/Camera/HDCameraUI.Drawers.cs"
-i:"F:/Unity Projecten/2018/ClimbingGame/Library/PackageCache/com.unity.render-pipelines.high-definition@4.10.0-preview/Editor/RenderPipeline/Camera/HDCameraUI.Skin.cs"
-i:"F:/Unity Projecten/2018/ClimbingGame/Library/PackageCache/com.unity.render-pipelines.high-definition@4.10.0-preview/Editor/RenderPipeline/Camera/SerializedHDCamera.cs"
-i:"F:/Unity Projecten/2018/ClimbingGame/Library/PackageCache/com.unity.render-pipelines.high-definition@4.10.0-preview/Editor/RenderPipeline/HDAssetFactory.cs"
-i:"F:/Unity Projecten/2018/ClimbingGame/Library/PackageCache/com.unity.render-pipelines.high-definition@4.10.0-preview/Editor/RenderPipeline/HDBaseEditor.cs"
-i:"F:/Unity Projecten/2018/ClimbingGame/Library/PackageCache/com.unity.render-pipelines.high-definition@4.10.0-preview/Editor/RenderPipeline/HDEditorCLI.cs"
-i:"F:/Unity Projecten/2018/ClimbingGame/Library/PackageCache/com.unity.render-pipelines.high-definition@4.10.0-preview/Editor/RenderPipeline/HDEditorUtils.cs"
-i:"F:/Unity Projecten/2018/ClimbingGame/Library/PackageCache/com.unity.render-pipelines.high-definition@4.10.0-preview/Editor/RenderPipeline/HDRenderPipelineEditor.cs"
-i:"F:/Unity Projecten/2018/ClimbingGame/Library/PackageCache/com.unity.render-pipelines.high-definition@4.10.0-preview/Editor/RenderPipeline/HDRenderPipelineMenuItems.cs"
-i:"F:/Unity Projecten/2018/ClimbingGame/Library/PackageCache/com.unity.render-pipelines.high-definition@4.10.0-preview/Editor/RenderPipeline/HDRenderPipelineUI.cs"
-i:"F:/Unity Projecten/2018/ClimbingGame/Library/PackageCache/com.unity.render-pipelines.high-definition@4.10.0-preview/Editor/RenderPipeline/Settings/CaptureSettingsUI.cs"
-i:"F:/Unity Projecten/2018/ClimbingGame/Library/PackageCache/com.unity.render-pipelines.high-definition@4.10.0-preview/Editor/RenderPipeline/Settings/FrameSettingsUI.cs"
-i:"F:/Unity Projecten/2018/ClimbingGame/Library/PackageCache/com.unity.render-pipelines.high-definition@4.10.0-preview/Editor/RenderPipeline/Settings/FrameSettingsUI.Drawers.cs"
-i:"F:/Unity Projecten/2018/ClimbingGame/Library/PackageCache/com.unity.render-pipelines.high-definition@4.10.0-preview/Editor/RenderPipeline/Settings/FrameSettingsUI.Skin.cs"
-i:"F:/Unity Projecten/2018/ClimbingGame/Library/PackageCache/com.unity.render-pipelines.high-definition@4.10.0-preview/Editor/RenderPipeline/Settings/GlobalDecalSettingsUI.cs"
-i:"F:/Unity Projecten/2018/ClimbingGame/Library/PackageCache/com.unity.render-pipelines.high-definition@4.10.0-preview/Editor/RenderPipeline/Settings/GlobalLightLoopSettingsUI.cs"
-i:"F:/Unity Projecten/2018/ClimbingGame/Library/PackageCache/com.unity.render-pipelines.high-definition@4.10.0-preview/Editor/RenderPipeline/Settings/HDShadowInitParametersUI.cs"
-i:"F:/Unity Projecten/2018/ClimbingGame/Library/PackageCache/com.unity.render-pipelines.high-definition@4.10.0-preview/Editor/RenderPipeline/Settings/LightLoopSettingsUI.cs"
-i:"F:/Unity Projecten/2018/ClimbingGame/Library/PackageCache/com.unity.render-pipelines.high-definition@4.10.0-preview/Editor/RenderPipeline/Settings/OverridableSettingsArea.cs"
-i:"F:/Unity Projecten/2018/ClimbingGame/Library/PackageCache/com.unity.render-pipelines.high-definition@4.10.0-preview/Editor/RenderPipeline/Settings/RenderPipelineSettingsUI.cs"
-i:"F:/Unity Projecten/2018/ClimbingGame/Library/PackageCache/com.unity.render-pipelines.high-definition@4.10.0-preview/Editor/RenderPipeline/Settings/SerializedCaptureSettings.cs"
-i:"F:/Unity Projecten/2018/ClimbingGame/Library/PackageCache/com.unity.render-pipelines.high-definition@4.10.0-preview/Editor/RenderPipeline/Settings/SerializedFrameSettings.cs"
-i:"F:/Unity Projecten/2018/ClimbingGame/Library/PackageCache/com.unity.render-pipelines.high-definition@4.10.0-preview/Editor/RenderPipeline/Settings/SerializedGlobalDecalSettings.cs"
-i:"F:/Unity Projecten/2018/ClimbingGame/Library/PackageCache/com.unity.render-pipelines.high-definition@4.10.0-preview/Editor/RenderPipeline/Settings/SerializedGlobalLightLoopSettings.cs"
-i:"F:/Unity Projecten/2018/ClimbingGame/Library/PackageCache/com.unity.render-pipelines.high-definition@4.10.0-preview/Editor/RenderPipeline/Settings/SerializedHDRenderPipelineAsset.cs"
-i:"F:/Unity Projecten/2018/ClimbingGame/Library/PackageCache/com.unity.render-pipelines.high-definition@4.10.0-preview/Editor/RenderPipeline/Settings/SerializedHDShadowInitParameters.cs"
-i:"F:/Unity Projecten/2018/ClimbingGame/Library/PackageCache/com.unity.render-pipelines.high-definition@4.10.0-preview/Editor/RenderPipeline/Settings/SerializedLightLoopSettings.cs"
-i:"F:/Unity Projecten/2018/ClimbingGame/Library/PackageCache/com.unity.render-pipelines.high-definition@4.10.0-preview/Editor/RenderPipeline/Settings/SerializedRenderPipelineSettings.cs"
-i:"F:/Unity Projecten/2018/ClimbingGame/Library/PackageCache/com.unity.render-pipelines.high-definition@4.10.0-preview/Editor/ShaderGraph/HDSubShaderUtilities.cs"
-i:"F:/Unity Projecten/2018/ClimbingGame/Library/PackageCache/com.unity.render-pipelines.high-definition@4.10.0-preview/Editor/ShaderGraph/Nodes/DiffusionProfileNode.cs"
-i:"F:/Unity Projecten/2018/ClimbingGame/Library/PackageCache/com.unity.render-pipelines.high-definition@4.10.0-preview/Editor/ShaderGraph/Slots/DiffusionProfileInputMaterialSlot.cs"
-i:"F:/Unity Projecten/2018/ClimbingGame/Library/PackageCache/com.unity.render-pipelines.high-definition@4.10.0-preview/Editor/ShaderGraph/Views/DiffusionProfileSlotControlView.cs"
-i:"F:/Unity Projecten/2018/ClimbingGame/Library/PackageCache/com.unity.render-pipelines.high-definition@4.10.0-preview/Editor/Sky/AtmosphericScattering/AtmosphericScatteringEditor.cs"
-i:"F:/Unity Projecten/2018/ClimbingGame/Library/PackageCache/com.unity.render-pipelines.high-definition@4.10.0-preview/Editor/Sky/AtmosphericScattering/ExponentialFogEditor.cs"
-i:"F:/Unity Projecten/2018/ClimbingGame/Library/PackageCache/com.unity.render-pipelines.high-definition@4.10.0-preview/Editor/Sky/AtmosphericScattering/LinearFogEditor.cs"
-i:"F:/Unity Projecten/2018/ClimbingGame/Library/PackageCache/com.unity.render-pipelines.high-definition@4.10.0-preview/Editor/Sky/AtmosphericScattering/VolumetricFogEditor.cs"
-i:"F:/Unity Projecten/2018/ClimbingGame/Library/PackageCache/com.unity.render-pipelines.high-definition@4.10.0-preview/Editor/Sky/BakingSkyEditor.cs"
-i:"F:/Unity Projecten/2018/ClimbingGame/Library/PackageCache/com.unity.render-pipelines.high-definition@4.10.0-preview/Editor/Sky/GradientSky/GradientSkyEditor.cs"
-i:"F:/Unity Projecten/2018/ClimbingGame/Library/PackageCache/com.unity.render-pipelines.high-definition@4.10.0-preview/Editor/Sky/HDRISky/HDRISkyEditor.cs"
-i:"F:/Unity Projecten/2018/ClimbingGame/Library/PackageCache/com.unity.render-pipelines.high-definition@4.10.0-preview/Editor/Sky/ProceduralSky/ProceduralSkyEditor.cs"
-i:"F:/Unity Projecten/2018/ClimbingGame/Library/PackageCache/com.unity.render-pipelines.high-definition@4.10.0-preview/Editor/Sky/SkySettingsEditor.cs"
-i:"F:/Unity Projecten/2018/ClimbingGame/Library/PackageCache/com.unity.render-pipelines.high-definition@4.10.0-preview/Editor/Sky/VisualEnvironmentEditor.cs"
-i:"F:/Unity Projecten/2018/ClimbingGame/Library/PackageCache/com.unity.render-pipelines.high-definition@4.10.0-preview/Editor/Upgraders/UpgradeMenuItem.cs"
-i:"F:/Unity Projecten/2018/ClimbingGame/Library/PackageCache/com.unity.render-pipelines.high-definition@4.10.0-preview/Editor/Upgraders/UpgradeStandardShaderMaterials.cs"
-v:0
