# 3ds Max Wavefront OBJ Exporter v0.94b - (c)2007 guruware
# File Created: 21.05.2014 16:52:33

newmtl black_paint
	Ns 40.000
	Ni 1.500
	d 1.000
	Tr 1.000
	Tf 1.000 1.000 1.000 
	illum 2
	Ka 0.588 0.588 0.588
	Kd 0.588 0.588 0.588
	Ks 0.450 0.450 0.450
	Ke 0.000 0.000 0.000
	map_Ka ..\scenes\MetalScratches_001.png
	map_Kd ..\scenes\MetalScratches_001.png

newmtl mat_black
	Ns 30.000
	Ni 1.500
	d 1.000
	Tr 1.000
	Tf 1.000 1.000 1.000 
	illum 2
	Ka 0.251 0.251 0.251
	Kd 0.251 0.251 0.251
	Ks 0.270 0.270 0.270
	Ke 0.000 0.000 0.000

newmtl red
	Ns 10.000
	Ni 1.500
	d 1.000
	Tr 1.000
	Tf 1.000 1.000 1.000 
	illum 2
	Ka 1.000 0.000 0.000
	Kd 1.000 0.000 0.000
	Ks 0.000 0.000 0.000
	Ke 0.000 0.000 0.000

newmtl glass
	Ns 90.000
	Ni 1.500
	d 0.400
	Tr 0.400
	Tf 0.400 0.400 0.400 
	illum 2
	Ka 0.282 0.282 0.282
	Kd 0.282 0.282 0.282
	Ks 0.630 0.630 0.630
	Ke 0.000 0.000 0.000

newmtl round
	Ns 50.000
	Ni 1.500
	d 1.000
	Tr 1.000
	Tf 1.000 1.000 1.000 
	illum 2
	Ka 0.604 0.318 0.086
	Kd 0.604 0.318 0.086
	Ks 0.810 0.810 0.810
	Ke 0.000 0.000 0.000
